<?xml version="1.0" encoding="UTF-8"?>
<svg width="1920px" height="700px" viewBox="0 0 1920 700" version="1.1" xmlns="http://www.w3.org/2000/svg" xmlns:xlink="http://www.w3.org/1999/xlink">
    <!-- Generator: Sketch 43.1 (39012) - http://www.bohemiancoding.com/sketch -->
    <title>Group 8</title>
    <desc>Created with Sketch.</desc>
    <defs>
        <linearGradient x1="0%" y1="0%" x2="101.999998%" y2="100.999999%" id="linearGradient-1">
            <stop stop-color="#3023AE" offset="0%"></stop>
            <stop stop-color="#C96DD8" offset="100%"></stop>
        </linearGradient>
    </defs>
    <g id="Desktop" stroke="none" stroke-width="1" fill="none" fill-rule="evenodd">
        <g id="institucional" transform="translate(0.000000, -221.000000)">
            <g id="Group-8" transform="translate(0.000000, 221.000000)">
                <rect id="Rectangle-2" fill="url(#linearGradient-1)" x="0" y="0" width="1920" height="700"></rect>
                <g id="Group-4" opacity="0.0822061567" transform="translate(749.000000, 34.000000)" fill="#FFFFFF">
                    <g id="Group-2" transform="translate(0.000000, 260.923077)">
                        <path d="M211.56119,77.2223114 C213.842499,74.9487978 217.796768,74.9487978 220.145671,77.2223114 L220.331556,77.3907198 C222.477676,79.8326418 222.42698,83.537627 220.145671,85.8111406 C218.117841,87.781519 214.163572,87.9162457 211.966756,86.1647982 L211.578089,85.7774589 C209.262982,83.4365819 209.262982,79.5463475 211.56119,77.2223114 M186.703371,103.797159 C186.703371,105.599129 187.413112,107.283214 188.680506,108.563117 C191.181496,111.139766 195.693419,111.173448 198.278902,108.579958 L209.550258,97.2965945 C213.673513,98.9975195 218.033348,98.9975195 222.139704,97.2965945 L233.41106,108.563117 C234.661556,109.843021 236.40211,110.567178 238.227157,110.567178 C240.018407,110.567178 241.758961,109.843021 243.009457,108.579958 C244.310648,107.283214 245.00349,105.548607 245.00349,103.729796 C244.986591,101.927826 244.259952,100.260583 243.009457,99.048042 L231.704303,87.7141557 C233.275872,83.7397171 233.275872,79.2263715 231.704303,75.2350921 L243.009457,63.9685691 C245.645636,61.3413978 245.645636,57.0469832 242.992558,54.3861303 C240.423973,51.860004 236.013442,51.8431632 233.427959,54.4029711 L222.055211,65.7536983 C218.13474,64.2717043 213.572122,64.2717043 209.65165,65.7536983 L198.262004,54.3861303 C195.693419,51.860004 191.249091,51.8431632 188.680506,54.4029711 C186.061225,57.0469832 186.061225,61.3413978 188.697404,63.9348874 L199.985659,75.2350921 C198.397192,79.2263715 198.397192,83.7397171 199.985659,87.7141557 L188.697404,99.0312012 C187.413112,100.311105 186.703371,101.995189 186.703371,103.797159" id="Fill-1"></path>
                        <path d="M117.958238,81.498201 C117.958238,79.8814803 118.566587,78.3658045 119.715691,77.2206273 C120.830997,76.1091318 122.402566,75.4860206 124.007931,75.4860206 C125.5795,75.4860206 127.100372,76.1091318 128.249476,77.2206273 C129.39858,78.3658045 130.023828,79.8814803 130.040726,81.498201 C130.040726,83.1317627 129.415478,84.6474384 128.249476,85.8094565 C126.120254,87.9482433 121.861811,87.9482433 119.715691,85.7757748 C118.566587,84.6305976 117.958238,83.1317627 117.958238,81.498201 M94.824075,103.795475 C94.824075,105.597445 95.5169169,107.281529 96.8012094,108.578274 C99.3359972,111.1044 103.831021,111.138082 106.399606,108.578274 L117.68786,97.2949104 C121.794217,98.9958354 126.187849,98.9958354 130.277306,97.2949104 L141.565561,108.595115 C142.849854,109.875019 144.556611,110.582334 146.364759,110.582334 C148.156009,110.582334 149.896563,109.858178 151.163957,108.578274 C152.44825,107.281529 153.15799,105.597445 153.15799,103.795475 C153.15799,101.993505 152.44825,100.309421 151.163957,99.0463579 L139.841905,87.7461532 C141.447271,83.7043513 141.447271,79.27521 139.841905,75.2502488 L151.163957,63.966885 C153.800137,61.3397137 153.800137,57.0452992 151.147059,54.3844462 C148.578474,51.85832 144.167943,51.8414791 141.565561,54.401287 L130.209712,65.7688551 C126.272342,64.3037019 121.709724,64.3037019 117.789252,65.7688551 L106.399606,54.3844462 C103.864818,51.8414791 99.4035915,51.8246383 96.8012094,54.401287 C94.1650301,57.0789808 94.1819287,61.3565546 96.818108,63.9332033 L108.14016,75.2502488 C106.568592,79.2415283 106.568592,83.738033 108.14016,87.7124716 L96.818108,99.0295171 C95.5338155,100.309421 94.824075,101.993505 94.824075,103.795475" id="Fill-3"></path>
                        <path d="M102.834004,13.575719 L323.478829,13.575719 C342.439041,13.575719 358.509595,27.60414 361.669631,47.0216303 L377.689489,119.033069 C374.225279,123.950594 372.028463,129.65964 370.372402,133.970895 L364.914159,150.862259 C359.929076,147.628818 353.389324,145.607917 347.542414,145.607917 L237.127059,145.607917 C226.954111,145.607917 218.741399,148.858199 212.708604,155.27456 C206.270243,148.858199 198.412401,145.607917 189.354759,145.607917 L76.8946763,145.607917 C71.1153602,145.607917 64.3390276,148.032998 59.2694521,151.822187 L53.5408318,136.800156 C51.4454073,131.023748 49.3161856,125.045249 45.7843813,120.279291 L64.7107965,46.6006092 C67.6342517,28.0756836 84.3807494,13.575719 102.834004,13.575719 M384.36443,200.374333 L39.4812091,200.374333 C25.3370935,200.374333 13.8291571,188.922561 13.8291571,174.826777 L13.8291571,137.507472 C13.8291571,130.400637 19.6422703,124.590546 26.7903718,124.590546 C34.0060676,124.590546 36.0169992,128.042919 40.8499945,141.633478 L50.7356667,167.467329 C50.8708554,167.770464 51.0229427,168.006236 51.1919285,168.275689 C51.9692634,171.256518 54.5716455,173.327942 57.647188,173.327942 C61.3817753,173.327942 64.4235206,170.29659 64.4235206,166.541083 C64.4235206,163.779185 71.5209263,159.097431 76.8946763,159.097431 L189.320962,159.097431 C198.868663,159.097431 203.92134,165.008566 207.26726,170.178704 C209.818946,174.052098 216.274205,173.951053 218.640007,170.161863 L219.451139,168.865119 C222.019724,164.755953 225.53463,159.097431 237.127059,159.097431 L347.542414,159.097431 C353.271034,159.097431 360.520527,163.105551 360.554324,165.850608 C360.588121,166.456878 360.72331,166.945263 360.858499,167.433647 C360.926093,167.703101 360.993687,168.09044 361.162673,168.393575 C361.365456,168.8988 361.652732,169.218776 362.007602,169.707161 C362.176588,169.942933 362.413168,170.313431 362.784937,170.599725 C362.953923,170.734452 363.139808,170.852338 363.325692,170.987065 L363.798852,171.2902 C364.153723,171.49229 364.474796,171.69438 364.829666,171.845948 L364.931058,171.879629 C365.01555,171.930152 365.116942,171.980674 365.269029,172.031197 L366.282944,172.165924 C366.502626,172.250128 366.840598,172.351173 367.279961,172.351173 L367.753121,172.317491 C368.209383,172.250128 368.631848,172.115401 369.121907,171.980674 C369.409183,171.930152 369.814749,171.845948 370.017532,171.728062 C370.558286,171.525972 370.946954,171.189155 371.35252,170.88602 C371.605999,170.717611 371.910173,170.49868 372.281942,170.128182 C372.467826,169.909251 372.619914,169.69032 372.974784,169.117731 C373.211364,168.764074 373.431046,168.393575 373.414147,168.309371 L383.147732,138.4674 C388.031423,125.887291 391.52943,121.626558 397.055268,121.626558 C404.203369,121.626558 410.016482,127.453489 410.016482,134.560325 L410.016482,174.826777 C410.016482,188.922561 398.508546,200.374333 384.36443,200.374333 M60.8410205,252.597783 C59.9453955,252.597783 58.9821762,252.14308 58.2893342,251.385242 C57.0219403,249.970611 56.4473884,247.831825 56.6501715,245.406743 L59.8778012,213.897529 L76.2694286,213.897529 L68.6481668,243.13323 C66.3499592,252.597783 63.0378366,252.597783 60.8410205,252.597783 M373.447944,251.35156 C372.704407,252.14308 371.774984,252.597783 370.862461,252.597783 C368.952921,252.597783 365.353522,252.597783 363.021517,242.998503 L355.434053,213.897529 L371.808782,213.897529 L375.019513,245.305698 C375.239194,247.814984 374.664643,249.970611 373.447944,251.35156 M397.055268,108.120203 C394.334595,108.120203 391.816706,108.558065 389.450904,109.433789 L374.985716,44.4786632 C370.761069,18.7458574 349.113982,0.0525232741 323.478829,0.0525232741 L102.834004,0.0525232741 C77.840997,0.0525232741 55.2644875,19.4026502 51.4454073,43.8892338 L33.9215746,111.993597 C31.7247586,111.387327 29.3420581,111.084191 26.7903718,111.084191 C12.1561972,111.084191 0.259593321,122.940144 0.259593321,137.507472 L0.259593321,174.826777 L0.310289076,176.08984 C1.02002965,197.3093 18.2227892,213.897529 39.4812091,213.897529 L46.2744403,213.897529 L43.1651006,244.126839 C42.6243459,250.458996 44.4155959,256.269086 48.2853719,260.529819 C51.5974945,264.083237 56.1601125,266.120978 60.8410205,266.120978 C68.2088036,266.120978 77.840997,262.702288 81.7952659,246.417194 L90.2783556,213.897529 L341.425126,213.897529 L349.874418,246.316149 C353.845586,262.702288 363.477779,266.120978 370.862461,266.120978 C375.543369,266.120978 380.105987,264.083237 383.41811,260.529819 C387.270987,256.285927 389.062237,250.425314 388.521482,244.025794 L385.429041,213.897529 C406.569171,213.291259 423.569147,196.012555 423.569147,174.826777 L423.569147,134.560325 C423.569147,119.976156 411.672544,108.120203 397.055268,108.120203" id="Fill-5"></path>
                        <path d="M301.664445,79.5901337 C301.664445,77.9734129 302.272794,76.4914189 303.455695,75.3462416 C304.554103,74.2179053 306.041179,73.611635 307.69724,73.611635 C309.353301,73.611635 310.857275,74.2179053 311.904988,75.31256 L312.411945,75.8177852 C313.273773,76.8787582 313.746933,78.2091847 313.746933,79.5901337 C313.746933,81.2068545 313.138584,82.6888485 311.989481,83.8340258 C309.84336,86.0064943 305.584917,86.0064943 303.438797,83.8340258 C302.272794,82.6888485 301.664445,81.2068545 301.664445,79.5901337 M278.564079,101.853726 C278.564079,103.689378 279.27382,105.373462 280.541214,106.619684 C283.0929,109.162651 287.486532,109.263696 290.122712,106.619684 L301.410966,95.3700022 C305.584917,97.0372455 309.775766,97.0372455 313.983514,95.386843 L325.271768,106.636525 C326.606757,107.93327 328.313514,108.640585 330.087865,108.640585 C331.862217,108.640585 333.602771,107.916429 334.853266,106.636525 C336.137559,105.407144 336.847299,103.706219 336.864198,101.904249 C336.864198,100.085438 336.171356,98.3508312 334.870165,97.087768 L323.565011,85.8044042 C325.187276,81.7794431 325.187276,77.3503018 323.565011,73.3253407 L334.887063,62.0419768 C336.154457,60.7620729 336.864198,59.0611479 336.864198,57.2591778 C336.864198,55.440367 336.154457,53.739442 334.887063,52.5269014 C332.318478,49.9334118 327.823455,49.9334118 325.288667,52.4932197 L313.915919,63.827106 C309.995448,62.3619528 305.449728,62.3619528 301.495459,63.827106 L290.13961,52.5269014 C287.571025,49.9334118 283.0929,49.9502526 280.558113,52.4932197 C279.27382,53.7731236 278.564079,55.440367 278.564079,57.2591778 C278.564079,59.0611479 279.256921,60.7620729 280.541214,62.0419768 L291.863266,73.3421815 C290.2579,77.3503018 290.2579,81.7794431 291.863266,85.8044042 L280.558113,97.087768 C279.27382,98.3508312 278.564079,100.051756 278.564079,101.853726" id="Fill-8"></path>
                    </g>
                    <path d="M738.551836,455.570199 C734.364611,455.640181 730.258805,454.403825 726.769451,452.059413 C726.187892,451.196297 725.338816,450.508136 724.361797,450.099905 L723.803501,449.621692 C711.951329,437.841316 692.969245,437.409757 680.616932,448.688593 C680.326153,448.875213 680.058636,449.096824 679.814381,449.353426 C671.660925,457.436397 658.540955,457.436397 650.399129,449.353426 C638.163129,437.164819 618.425018,437.164819 606.189017,449.353426 C598.035561,457.436397 584.915591,457.436397 576.762134,449.353426 C564.526134,437.164819 544.799654,437.164819 532.563653,449.353426 C525.270904,456.596608 513.814193,457.436397 505.509531,451.382916 L535.669178,357.676439 C537.204494,352.486076 541.973277,348.893644 547.370144,348.893644 L552.197084,348.893644 L624.624436,421.698701 C626.671524,423.739856 629.98641,423.739856 632.021866,421.698701 L704.56553,348.893644 L709.369207,348.893644 C714.835861,348.905308 719.627907,352.567722 721.128329,357.816404 L751.206559,451.266279 C747.577631,454.065576 743.13452,455.570199 738.551836,455.570199 L738.551836,455.570199 Z M717.208622,518.694353 L703.274469,518.694353 L703.274469,450.928031 C708.240983,451.242952 712.916717,453.365752 716.452595,456.864874 L717.208622,457.553034 L717.208622,518.694353 Z M553.371833,518.694353 L539.43768,518.694353 L539.43768,457.144803 L539.856403,456.7599 C543.473699,453.155805 548.289008,451.033004 553.371833,450.788066 L553.371833,518.694353 Z M689.793933,349.021945 L628.323151,410.513176 L566.864001,348.893644 L689.793933,349.021945 Z M731.119512,354.737177 C728.281505,345.079601 719.430177,338.43127 709.369207,338.384615 L547.277095,338.536244 C537.26265,338.559571 528.446216,345.13792 525.561684,354.737177 L494.425017,451.336261 C494.215656,451.907785 494.110975,452.514299 494.110975,453.132477 C494.110975,454.823719 494.936789,456.409988 496.309268,457.389742 C505.114071,465.566023 517.803687,467.980417 528.969619,463.629842 L528.969619,523.779743 C528.969619,526.67235 531.319117,529.016762 534.215281,529.016762 L558.605864,529.016762 C561.490396,529.016762 563.839894,526.67235 563.839894,523.779743 L563.839894,452.945857 C565.817195,453.878957 567.654921,455.13864 569.236761,456.643263 C581.472762,468.83187 601.199241,468.83187 613.446873,456.643263 C621.577067,448.571955 634.708669,448.571955 642.850494,456.643263 C654.795715,468.528612 673.917373,468.855197 686.269686,457.413069 C686.548834,457.238113 686.827982,457.004838 687.060606,456.7599 C688.747127,455.115313 690.689534,453.773983 692.818039,452.770901 L692.818039,523.931371 C692.818039,526.847306 695.155906,529.191718 698.05207,529.191718 L722.442653,529.191718 C725.338816,529.191718 727.665052,526.847306 727.665052,523.931371 L727.665052,464.073064 C738.69141,468.190364 751.066984,465.77597 759.708951,457.751318 C761.988662,456.596608 763.05873,453.948939 762.291072,451.511218 L731.119512,354.737177 Z" id="Fill-1"></path>
                    <g id="Page-1" transform="translate(475.237424, 0.000000)">
                        <g id="Group-3">
                            <path d="M80.2898295,83.7142649 C80.0093782,81.0139396 77.6000468,79.086947 74.8465253,79.3531762 C72.1439949,79.6574382 70.180836,82.0535015 70.474035,84.7538268 C72.5646718,104.163207 64.2913593,136.427657 53.7871845,149.929284 C52.1172246,152.084473 52.4996582,155.152448 54.6667816,156.813212 C55.5591266,157.497801 56.6299405,157.852773 57.6880067,157.852773 C59.154002,157.852773 60.6199972,157.180861 61.5888289,155.938458 C73.7629635,140.319675 82.6736653,105.900036 80.2898295,83.7142649" id="Fill-1"></path>
                            <path d="M236.499912,84.7550945 C236.780363,82.0547693 234.829952,79.6333508 232.114674,79.354444 C229.386648,79.0628595 226.990064,81.0152074 226.684117,83.7155327 C224.300282,105.875949 233.210983,140.320943 245.385118,155.939726 C246.35395,157.182129 247.819945,157.854041 249.298688,157.854041 C250.356754,157.854041 251.427568,157.499069 252.307165,156.814479 C254.461541,155.153716 254.856722,152.085741 253.19951,149.930551 C242.66984,136.428925 234.422023,104.164475 236.499912,84.7550945" id="Fill-3"></path>
                            <path d="M68.0022395,155.521366 C65.7458816,157.055353 65.1594835,160.097973 66.6892177,162.354583 C67.6453015,163.73644 69.2005313,164.484417 70.7812566,164.484417 C71.7373405,164.484417 72.7061722,164.218188 73.5602738,163.647697 C93.7782608,149.955907 114.289447,119.200089 119.261083,95.0366148 C119.809238,92.3869998 118.101035,89.7754176 115.436747,89.2302815 C112.721469,88.697823 110.146417,90.3966192 109.61101,93.0715893 C105.136537,114.686869 86.0913464,143.287498 68.0022395,155.521366" id="Fill-5"></path>
                            <path d="M197.373135,93.0741249 C196.824981,90.3991547 194.249928,88.687681 191.547398,89.232817 C188.883111,89.7779531 187.16216,92.3768578 187.710314,95.0264727 C192.694698,119.202625 213.193137,149.945765 233.423871,163.637555 C234.277973,164.208046 235.246805,164.486953 236.202889,164.486953 C237.783614,164.486953 239.326096,163.738975 240.28218,162.357119 C241.811914,160.100509 241.225516,157.057889 238.981906,155.523901 C220.892799,143.290033 201.847608,114.689405 197.373135,93.0741249" id="Fill-7"></path>
                            <path d="M62.3256509,185.704157 C61.4588015,183.155962 58.6797844,181.761428 56.0792362,182.636181 C53.5041836,183.523612 52.1019273,186.300003 52.9942722,188.873553 C57.7364483,202.742829 59.9928062,218.691229 59.7123549,236.287715 C59.6613638,238.98804 61.841235,241.219295 64.569261,241.270005 L64.6457477,241.270005 C67.3355304,241.270005 69.5281494,239.114816 69.5791405,236.439846 C69.8850874,217.6897 67.4375126,200.63835 62.3256509,185.704157" id="Fill-9"></path>
                            <path d="M242.413609,241.268738 C245.141635,241.218027 247.321507,238.986772 247.283263,236.286447 C246.977316,218.689961 249.246422,202.741561 253.988598,188.872285 C254.880943,186.298735 253.491435,183.522345 250.903634,182.634914 C248.315834,181.772838 245.524069,183.129339 244.65722,185.702889 C239.53261,200.637082 237.097783,217.726465 237.390982,236.438578 C237.441973,239.113548 239.64734,241.268738 242.337123,241.268738 L242.413609,241.268738 Z" id="Fill-11"></path>
                            <path d="M291.662127,20.4252325 C288.934101,20.4252325 286.715987,18.2446881 286.715987,15.5190076 C286.715987,12.8186823 288.934101,10.6254604 291.662127,10.6254604 C294.377405,10.6254604 296.59552,12.8186823 296.59552,15.5190076 C296.59552,18.2446881 294.377405,20.4252325 291.662127,20.4252325 M15.3156442,20.4252325 C12.600366,20.4252325 10.3949992,18.2446881 10.3949992,15.5190076 C10.3949992,12.8186823 12.600366,10.6254604 15.3156442,10.6254604 C18.0436701,10.6254604 20.2617847,12.8186823 20.2617847,15.5190076 C20.2617847,18.2446881 18.0436701,20.4252325 15.3156442,20.4252325 M291.662127,0.813010734 C285.224496,0.813010734 279.806687,4.93322538 277.754294,10.6254604 L29.2234776,10.6254604 C27.1710842,4.93322538 21.7405278,0.813010734 15.3156442,0.813010734 C7.16980955,0.813010734 0.515465792,7.43070934 0.515465792,15.5190076 C0.515465792,23.6453387 7.16980955,30.2503597 15.3156442,30.2503597 C21.7405278,30.2503597 27.1710842,26.1428226 29.2234776,20.4252325 L277.767041,20.4252325 C279.806687,26.1428226 285.237243,30.2503597 291.662127,30.2503597 C299.82071,30.2503597 306.462305,23.6453387 306.462305,15.5190076 C306.462305,7.43070934 299.82071,0.813010734 291.662127,0.813010734" id="Fill-13" stroke="#FFFFFF" stroke-width="2"></path>
                            <path d="M262.045198,159.606083 L231.883939,173.348584 C197.796362,153.989914 173.384354,121.446557 164.435409,83.4138062 C189.790753,79.9781811 205.942197,65.3228945 212.876992,57.5135031 C224.949144,70.5714141 239.443375,78.9639744 256.091983,82.3995995 C257.685456,82.7545719 259.78884,83.0208011 262.045198,83.2743528 L262.045198,159.606083 Z M239.583601,246.688404 L222.629047,238.270489 C223.291932,217.745481 228.314559,195.585065 235.223859,182.60322 L262.045198,170.407384 L262.045198,255.981073 L242.311627,255.981073 L242.311627,251.074848 C242.311627,249.211244 241.253561,247.537803 239.583601,246.688404 L239.583601,246.688404 Z M75.1116792,173.348584 L44.9376721,159.606083 L44.9376721,82.5770857 C64.1868275,79.128783 81.6130495,70.2671521 94.0038966,57.3867272 C100.874953,65.1707635 117.06464,79.9528259 142.547462,83.4138062 C133.611265,121.421202 109.199256,153.989914 75.1116792,173.348584 L75.1116792,173.348584 Z M67.3865215,246.688404 C65.7293095,247.537803 64.6712433,249.211244 64.6712433,251.074848 L64.6712433,255.981073 L44.9376721,255.981073 L44.9376721,170.407384 L71.746264,182.60322 C78.6555634,195.55971 83.6909385,217.745481 84.3538233,238.270489 L67.3865215,246.688404 Z M276.845377,30.2566985 C274.117351,30.2566985 271.911984,32.462598 271.911984,35.1629233 L271.911984,74.1845254 C266.991339,73.9056186 261.165601,73.436548 258.11888,72.7899912 C241.635994,69.3797212 228.034108,60.8603851 216.548354,46.800945 C216.369885,46.5727485 216.140425,46.4713278 215.949208,46.2938416 C215.770739,46.1543882 215.668756,45.9515469 215.47754,45.7994159 C215.401053,45.7613831 215.324566,45.7613831 215.24808,45.736028 C214.929385,45.5331866 214.597943,45.431766 214.253752,45.3049901 C213.973301,45.216247 213.718345,45.1148264 213.437894,45.064116 C213.106452,45.0134057 212.787757,45.0387609 212.456315,45.064116 C212.163116,45.0894712 211.857169,45.064116 211.576717,45.1401815 C211.283518,45.216247 210.990319,45.3557005 210.69712,45.5078315 C210.391173,45.6346073 210.110722,45.7613831 209.830271,45.9515469 C209.753784,46.0022572 209.677298,46.0022572 209.600811,46.0783227 C209.384098,46.2304537 209.282116,46.4713278 209.116395,46.648814 C208.950674,46.8263001 208.746709,46.9403984 208.619231,47.1432397 C208.428015,47.3841138 189.625032,74.4253995 153.485061,74.4253995 C117.536308,74.4253995 99.1285061,48.2335119 98.363639,47.1178846 C98.2106656,46.9150432 98.006701,46.800945 97.828232,46.6234588 C97.6625108,46.4459726 97.5860241,46.2304537 97.3820596,46.0783227 C97.3183206,46.0022572 97.2290862,46.0022572 97.1525994,45.9515469 C96.8721482,45.7613831 96.5662013,45.6092521 96.2347589,45.4824763 C95.9670554,45.3557005 95.7120997,45.216247 95.4316485,45.1655367 C95.1129538,45.064116 94.7942592,45.064116 94.4628168,45.064116 C94.15687,45.064116 93.8636709,45.0134057 93.5577241,45.064116 C93.264525,45.1148264 92.971326,45.2416022 92.6908747,45.3303453 C92.3594323,45.431766 92.0534854,45.5331866 91.7602864,45.7106728 C91.6837997,45.7613831 91.5945652,45.7613831 91.5180785,45.7994159 C91.3013661,45.9515469 91.1866361,46.1797434 90.9954193,46.344552 C90.8169503,46.496683 90.6129857,46.5981036 90.4472645,46.800945 C77.9034441,62.1534986 57.4432492,72.0546914 35.0581388,74.0070392 L35.0581388,35.1629233 C35.0581388,32.462598 32.852772,30.2566985 30.1374938,30.2566985 C27.39672,30.2566985 25.1913532,32.462598 25.1913532,35.1629233 L25.1913532,79.3316243 C25.1913532,79.3569795 25.204101,79.3823346 25.204101,79.4076898 C25.204101,79.433045 25.1913532,79.4584001 25.1913532,79.4837553 C25.204101,79.8006949 25.3443266,80.1049569 25.4080655,80.3965413 C25.4590567,80.6881257 25.4845522,81.0177429 25.6120301,81.2839722 C25.7522557,81.6135893 25.9817159,81.8798186 26.1984282,82.1587254 C26.3641494,82.3742444 26.4788795,82.627796 26.6700962,82.8179598 C26.9505475,83.0968666 27.3074855,83.2743528 27.6389279,83.4645165 C27.8428925,83.5912924 28.0086137,83.7687785 28.2125782,83.8321665 C28.8117241,84.0857181 29.4491134,84.2378491 30.124746,84.2378491 L30.2777194,84.2378491 C31.8839403,84.1871388 33.4646656,83.9589423 35.0581388,83.8321665 L35.0581388,162.597993 L35.0581388,260.899976 C35.0581388,263.600301 37.2635056,265.8062 39.9915316,265.8062 L69.5918883,265.8062 C72.3326621,265.8062 74.5380289,263.600301 74.5380289,260.899976 L74.5380289,254.117468 L91.543574,245.648843 C93.2390295,244.812122 94.2970956,243.100648 94.2716,241.211688 C94.0676355,222.917935 90.1030743,198.057194 81.8297619,180.803003 C117.778516,159.707504 143.388816,124.793439 152.51623,84.1871388 C152.847672,84.1871388 153.153619,84.2378491 153.485061,84.2378491 C153.829251,84.2378491 154.122451,84.1871388 154.466641,84.1871388 C163.581307,124.793439 189.204355,159.707504 225.140361,180.803003 C216.867048,198.057194 212.902487,222.917935 212.71127,241.211688 C212.685775,243.100648 213.743841,244.812122 215.439296,245.648843 L232.444842,254.117468 L232.444842,260.899976 C232.444842,263.600301 234.650208,265.8062 237.365487,265.8062 L266.991339,265.8062 C269.719365,265.8062 271.911984,263.600301 271.911984,260.899976 L271.911984,84.0096526 C273.77316,84.1110733 275.44312,84.1871388 276.692403,84.2378491 L276.858124,84.2378491 C277.533757,84.2378491 278.171146,84.0857181 278.757544,83.8321665 C278.974257,83.7687785 279.139978,83.5912924 279.331195,83.4645165 C279.675385,83.2743528 280.019575,83.0968666 280.312774,82.8179598 C280.491243,82.627796 280.605973,82.3742444 280.771694,82.1587254 C280.975659,81.8798186 281.217867,81.6135893 281.37084,81.2839722 C281.472823,81.0430981 281.472823,80.7388361 281.549309,80.497962 C281.638544,80.1429897 281.778769,79.8260501 281.791517,79.4837553 C281.791517,79.4584001 281.778769,79.433045 281.778769,79.4076898 C281.778769,79.3823346 281.791517,79.3569795 281.791517,79.3316243 L281.791517,35.1629233 C281.791517,32.462598 279.58615,30.2566985 276.845377,30.2566985 L276.845377,30.2566985 Z" id="Fill-16" stroke="#FFFFFF" stroke-width="6"></path>
                        </g>
                    </g>
                    <path d="M869.384389,395.196029 C869.384389,386.203038 876.710564,378.903104 885.686779,378.903104 C894.684993,378.903104 901.989168,386.203038 901.989168,395.196029 L901.989168,435.939336 C901.989168,440.446825 905.641255,444.074804 910.151362,444.074804 L1024.26809,444.074804 C1028.80019,444.074804 1032.43028,440.446825 1032.43028,435.939336 L1032.43028,395.196029 C1032.43028,386.203038 1039.73446,378.903104 1048.73267,378.903104 C1057.73088,378.903104 1065.03506,386.203038 1065.03506,395.196029 L1065.03506,476.660655 L869.384389,476.660655 L869.384389,395.196029 Z M893.848973,338.137809 C893.848973,324.681304 904.827235,313.709415 918.291557,313.709415 L1016.12789,313.709415 C1029.61421,313.709415 1040.59248,324.681304 1040.59248,338.137809 L1040.59248,363.621615 C1039.44845,363.907456 1038.39242,364.369199 1037.2924,364.764978 C1036.78638,364.962868 1036.28037,365.094795 1035.79636,365.314672 C1033.99232,366.084243 1032.27628,367.007729 1030.67024,368.085129 C1030.31823,368.305007 1030.01022,368.612835 1029.68022,368.876688 C1028.42619,369.778186 1027.26016,370.723659 1026.16013,371.779072 C1025.67612,372.240814 1025.21411,372.76852 1024.7741,373.274239 C1023.91608,374.197724 1023.10206,375.187173 1022.35404,376.19861 C1021.91403,376.792279 1021.51802,377.407936 1021.12201,378.067569 C1020.484,379.100993 1019.86798,380.178393 1019.36197,381.321757 C1019.03196,382.003377 1018.72395,382.663009 1018.43795,383.34463 C1017.95394,384.61992 1017.57993,385.873221 1017.24992,387.214474 C1017.07391,387.830131 1016.87591,388.423801 1016.76591,389.083433 C1016.3479,391.084319 1016.12789,393.085205 1016.12789,395.196029 L1016.12789,427.759891 L918.291557,427.759891 L918.291557,395.196029 C918.291557,393.085205 918.049551,391.084319 917.675542,389.083433 C917.565539,388.423801 917.367535,387.830131 917.19153,387.192487 C916.861523,385.873221 916.487514,384.575944 915.981502,383.34463 C915.717495,382.663009 915.409488,381.981389 915.07948,381.321757 C914.551467,380.178393 913.957453,379.100993 913.319438,378.045581 C912.923429,377.407936 912.527419,376.792279 912.087409,376.19861 C911.339391,375.165186 910.525371,374.197724 909.667351,373.274239 C909.20534,372.746533 908.78733,372.218827 908.281318,371.757084 C907.181292,370.701672 905.993263,369.756198 904.761234,368.876688 C904.431226,368.612835 904.123219,368.305007 903.77121,368.085129 C902.165172,366.985741 900.449131,366.062256 898.645088,365.292684 C898.161076,365.072807 897.633064,364.94088 897.149052,364.742991 C896.049026,364.369199 894.971,363.907456 893.848973,363.621615 L893.848973,338.137809 Z M1032.43028,509.246505 L1048.73267,509.246505 L1048.73267,492.95358 L1032.43028,492.95358 L1032.43028,509.246505 Z M885.686779,509.246505 L901.989168,509.246505 L901.989168,492.95358 L885.686779,492.95358 L885.686779,509.246505 Z M861.222195,492.95358 L869.384389,492.95358 L869.384389,517.403962 C869.384389,521.889463 873.036477,525.53943 877.546584,525.53943 L910.151362,525.53943 C914.66147,525.53943 918.291557,521.889463 918.291557,517.403962 L918.291557,492.95358 L1016.12789,492.95358 L1016.12789,517.403962 C1016.12789,521.889463 1019.77998,525.53943 1024.26809,525.53943 L1056.87286,525.53943 C1061.40497,525.53943 1065.03506,521.889463 1065.03506,517.403962 L1065.03506,492.95358 L1073.17525,492.95358 C1077.70736,492.95358 1081.33745,489.303613 1081.33745,484.818111 L1081.33745,395.196029 C1081.33745,380.068455 1070.9092,367.381521 1056.87286,363.753542 L1056.87286,338.137809 C1056.87286,315.688313 1038.59043,297.438478 1016.12789,297.438478 L918.291557,297.438478 C895.829021,297.438478 877.546584,315.688313 877.546584,338.137809 L877.546584,363.753542 C863.510249,367.381521 853.082,380.068455 853.082,395.196029 L853.082,484.818111 C853.082,489.303613 856.734088,492.95358 861.222195,492.95358 L861.222195,492.95358 Z" id="Fill-1"></path>
                    <path d="M1106.60384,110.041254 L1157.99706,110.041254 L1171.59339,191.50588 L1093.00751,191.50588 L1106.60384,110.041254 Z M1181.22962,207.798805 C1183.60567,207.798805 1185.89373,206.743393 1187.43376,204.896422 C1188.9738,203.04945 1189.65582,200.652785 1189.25981,198.322083 L1172.95742,100.542544 C1172.2974,96.6287244 1168.88732,93.7483287 1164.90523,93.7483287 L1099.69567,93.7483287 C1095.71358,93.7483287 1092.30349,96.6287244 1091.66548,100.542544 L1075.34109,198.322083 C1074.96708,200.652785 1075.6271,203.04945 1077.18913,204.896422 C1078.70717,206.743393 1080.99522,207.798805 1083.37128,207.798805 L1124.13825,207.798805 L1124.13825,509.250903 L1112.85316,509.250903 C1110.09433,509.250903 1107.85787,511.496224 1107.85787,514.243297 L1107.85787,520.529446 C1107.85787,523.286669 1110.10251,525.52184 1112.86195,525.52184 L1151.76095,525.52184 C1154.52463,525.52184 1156.76503,523.276519 1156.76503,520.529446 L1156.76503,514.243297 C1156.76503,511.486074 1154.53244,509.250903 1151.76299,509.250903 L1140.46264,509.250903 L1140.46264,207.798805 L1181.22962,207.798805 Z" id="Fill-8"></path>
                    <path d="M869.39099,199.630355 L1032.43688,199.630355 L1032.43688,101.872804 L869.39099,101.872804 L869.39099,199.630355 Z M950.902935,54.6211217 L997.368044,85.5578906 L904.459827,85.5578906 L950.902935,54.6211217 Z M861.228795,215.945268 L1040.57708,215.945268 C1045.08718,215.945268 1048.73927,212.295301 1048.73927,207.809799 L1048.73927,93.7373348 C1048.73927,89.2298454 1045.08718,85.5578906 1040.57708,85.5578906 L1026.76075,85.5578906 L955.435043,38.0643435 C952.684978,36.23936 949.142893,36.23936 946.392827,38.0643435 L875.067125,85.5578906 L861.228795,85.5578906 C856.740688,85.5578906 853.088601,89.2298454 853.088601,93.7373348 L853.088601,207.809799 C853.088601,212.295301 856.740688,215.945268 861.228795,215.945268 L861.228795,215.945268 Z" id="Fill-9"></path>
                </g>
            </g>
        </g>
    </g>
</svg>