<?xml version="1.0" encoding="UTF-8"?>
<svg width="1920px" height="504px" viewBox="0 0 1920 504" version="1.1" xmlns="http://www.w3.org/2000/svg" xmlns:xlink="http://www.w3.org/1999/xlink">
    <!-- Generator: Sketch 43.1 (39012) - http://www.bohemiancoding.com/sketch -->
    <title>Artboard</title>
    <desc>Created with Sketch.</desc>
    <defs>
        <linearGradient x1="42.1049545%" y1="115.183882%" x2="76.3593484%" y2="-128.634904%" id="linearGradient-1">
            <stop stop-color="#FFD22A" offset="0%"></stop>
            <stop stop-color="#FFD22A" offset="0%"></stop>
            <stop stop-color="#FFCC24" offset="44.93%"></stop>
            <stop stop-color="#FFC61D" offset="100%"></stop>
        </linearGradient>
    </defs>
    <g id="Page-1" stroke="none" stroke-width="1" fill="none" fill-rule="evenodd">
        <g id="Artboard" fill-rule="nonzero">
            <g id="after-buying-guide-heading" transform="translate(499.000000, 67.000000)">
                <path d="M1421,7.602 L1421,442 L310,442 L310,438.230247 C1252.28554,415.541874 1421,7.602 1421,7.602 Z" id="-" fill="#FFFFFF"></path>
                <path d="M0.518,425.723 C1216.513,511.465 1421,90.797 1421,90.797 L1421,0.813 C1421,0.812 1216.513,495.222 0.518,425.723 Z" id="Shape" fill="url(#linearGradient-1)"></path>
            </g>
        </g>
    </g>
</svg>