<?xml version="1.0" encoding="UTF-8"?>
<svg width="8px" height="12px" viewBox="0 0 8 12" version="1.1" xmlns="http://www.w3.org/2000/svg" xmlns:xlink="http://www.w3.org/1999/xlink">
    <!-- Generator: Sketch 43.1 (39012) - http://www.bohemiancoding.com/sketch -->
    <title>Icon 24px</title>
    <desc>Created with Sketch.</desc>
    <defs></defs>
    <g id="Mobile" stroke="none" stroke-width="1" fill="none" fill-rule="evenodd">
        <g id="Menu" transform="translate(-335.000000, -251.000000)">
            <g id="Group-3" transform="translate(33.000000, 245.000000)">
                <g id="Icon-24px" transform="translate(294.000000, 0.000000)">
                    <polygon id="Shape" fill="#4A4A4A" points="10 6 8.59 7.41 13.17 12 8.59 16.59 10 18 16 12"></polygon>
                    <polygon id="Shape" points="0 0 24 0 24 24 0 24"></polygon>
                </g>
            </g>
        </g>
    </g>
</svg>