<?xml version="1.0" encoding="UTF-8"?>
<svg width="12px" height="17px" viewBox="0 0 12 17" version="1.1" xmlns="http://www.w3.org/2000/svg" xmlns:xlink="http://www.w3.org/1999/xlink">
    <!-- Generator: Sketch 43.1 (39012) - http://www.bohemiancoding.com/sketch -->
    <title>Shape</title>
    <desc>Created with Sketch.</desc>
    <defs></defs>
    <g id="Symbols" stroke="none" stroke-width="1" fill="none" fill-rule="evenodd">
        <g id="Topo" transform="translate(-172.000000, -28.000000)" fill="#95499D">
            <g id="Group-24" transform="translate(162.000000, 16.000000)">
                <g id="Group-2" transform="translate(10.000000, 10.000000)">
                    <path d="M6,2 C2.68285714,2 0,4.5353 0,7.67 C0,11.9225 6,18.2 6,18.2 C6,18.2 12,11.9225 12,7.67 C12,4.5353 9.31714286,2 6,2 L6,2 Z M6,9.695 C4.81714286,9.695 3.85714286,8.7878 3.85714286,7.67 C3.85714286,6.5522 4.81714286,5.645 6,5.645 C7.18285714,5.645 8.14285714,6.5522 8.14285714,7.67 C8.14285714,8.7878 7.18285714,9.695 6,9.695 L6,9.695 Z" id="Shape"></path>
                </g>
            </g>
        </g>
    </g>
</svg>