<?xml version="1.0" encoding="UTF-8"?>
<svg width="18px" height="18px" viewBox="0 0 18 18" version="1.1" xmlns="http://www.w3.org/2000/svg" xmlns:xlink="http://www.w3.org/1999/xlink">
    <!-- Generator: Sketch 43.1 (39012) - http://www.bohemiancoding.com/sketch -->
    <title>Group 25</title>
    <desc>Created with Sketch.</desc>
    <defs>
        <polygon id="path-1" points="12 6.33333333 12 8.6 19.4686667 8.6 6.33333333 21.7353333 7.93133333 23.3333333 21.0666667 10.198 21.0666667 17.6666667 23.3333333 17.6666667 23.3333333 6.33333333"></polygon>
        <rect id="path-3" x="0" y="0" width="30" height="30"></rect>
    </defs>
    <g id="Desktop" stroke="none" stroke-width="1" fill="none" fill-rule="evenodd">
        <g id="home" transform="translate(-1399.000000, -2653.000000)">
            <g id="Group-17" transform="translate(1199.000000, 2345.000000)">
                <g id="Group-19" transform="translate(194.000000, 65.000000)">
                    <g id="Shape" transform="translate(0.000000, 237.000000)">
                        <g id="Group-25">
                            <mask id="mask-2" fill="white">
                                <use xlink:href="#path-1"></use>
                            </mask>
                            <use id="Shape" fill="#9012FE" xlink:href="#path-1"></use>
                            <mask id="mask-4" fill="white">
                                <use xlink:href="#path-3"></use>
                            </mask>
                            <g id="Mask"></g>
                        </g>
                    </g>
                </g>
            </g>
        </g>
    </g>
</svg>