<?xml version="1.0" encoding="UTF-8"?>
<svg width="26px" height="26px" viewBox="0 0 26 26" version="1.1" xmlns="http://www.w3.org/2000/svg" xmlns:xlink="http://www.w3.org/1999/xlink">
    <!-- Generator: Sketch 43.1 (39012) - http://www.bohemiancoding.com/sketch -->
    <title>Icon 24px</title>
    <desc>Created with Sketch.</desc>
    <defs></defs>
    <g id="Desktop" stroke="none" stroke-width="1" fill="none" fill-rule="evenodd">
        <g id="home" transform="translate(-1401.000000, -2773.000000)">
            <g id="Group-17" transform="translate(1199.000000, 2345.000000)">
                <g id="Group-19" transform="translate(200.000000, 65.000000)">
                    <g id="Group-12" transform="translate(0.000000, 358.000000)">
                        <g id="Icon-24px" transform="translate(0.000000, 3.000000)">
                            <path d="M25,2.5 L5,2.5 C3.625,2.5 2.5125,3.625 2.5125,5 L2.5,27.5 L7.5,22.5 L25,22.5 C26.375,22.5 27.5,21.375 27.5,20 L27.5,5 C27.5,3.625 26.375,2.5 25,2.5 L25,2.5 Z M7.5,11.25 L22.5,11.25 L22.5,13.75 L7.5,13.75 L7.5,11.25 L7.5,11.25 Z M17.5,17.5 L7.5,17.5 L7.5,15 L17.5,15 L17.5,17.5 L17.5,17.5 Z M22.5,10 L7.5,10 L7.5,7.5 L22.5,7.5 L22.5,10 L22.5,10 Z" id="Shape" fill="#9012FE"></path>
                            <polygon id="Shape" points="0 0 30 0 30 30 0 30"></polygon>
                        </g>
                    </g>
                </g>
            </g>
        </g>
    </g>
</svg>