<?xml version="1.0" encoding="UTF-8"?>
<svg width="20px" height="22px" viewBox="0 0 20 22" version="1.1" xmlns="http://www.w3.org/2000/svg" xmlns:xlink="http://www.w3.org/1999/xlink">
    <!-- Generator: Sketch 43.1 (39012) - http://www.bohemiancoding.com/sketch -->
    <title>Fill 1</title>
    <desc>Created with Sketch.</desc>
    <defs></defs>
    <g id="Desktop" stroke="none" stroke-width="1" fill="none" fill-rule="evenodd">
        <g id="menu_decoracao" transform="translate(-1132.000000, -123.000000)" stroke="#FFDB14" fill="#FFDB14">
            <path d="M1149.75757,141.377633 C1149.75757,142.062461 1149.20122,142.618817 1148.51639,142.618817 L1145.41396,142.618817 L1145.41396,133.929469 C1145.41396,133.586525 1145.13578,133.308347 1144.79284,133.308347 L1139.20698,133.308347 C1138.86404,133.308347 1138.58586,133.586525 1138.58586,133.929469 L1138.58586,142.618817 L1135.48343,142.618817 C1134.7986,142.618817 1134.24225,142.062461 1134.24225,141.377633 L1134.24225,131.441793 L1141.99938,125.406816 L1149.75757,131.441793 L1149.75757,141.377633 Z M1139.8281,142.618817 L1144.17065,142.618817 L1144.17065,134.550592 L1139.8281,134.550592 L1139.8281,142.618817 Z M1150.75986,130.646544 L1142.38055,124.130595 C1142.15758,123.956468 1141.84224,123.956468 1141.61821,124.130595 L1133.23996,130.646544 C1133.08813,130.763336 1133,130.944895 1133,131.13601 L1133,141.377633 C1133,142.747288 1134.11377,143.860001 1135.48343,143.860001 L1148.51639,143.860001 C1149.88604,143.860001 1150.99982,142.747288 1150.99982,141.377633 L1150.99982,131.13601 C1150.99982,130.944895 1150.91063,130.763336 1150.75986,130.646544 L1150.75986,130.646544 Z" id="Fill-1"></path>
        </g>
    </g>
</svg>