<?xml version="1.0" encoding="UTF-8"?>
<svg width="14px" height="24px" viewBox="0 0 14 24" version="1.1" xmlns="http://www.w3.org/2000/svg" xmlns:xlink="http://www.w3.org/1999/xlink">
    <!-- Generator: Sketch 43.1 (39012) - http://www.bohemiancoding.com/sketch -->
    <title>Shape</title>
    <desc>Created with Sketch.</desc>
    <defs></defs>
    <g id="Desktop" stroke="none" stroke-width="1" fill="none" fill-rule="evenodd">
        <g id="single_produto_comum" transform="translate(-1832.000000, -658.000000)" fill="#9B9B9B">
            <g id="Group-14" transform="translate(1769.000000, 375.000000)">
                <path d="M70.3066667,293.533333 C67.28,292.746667 66.3066667,291.933333 66.3066667,290.666667 C66.3066667,289.213333 67.6533333,288.2 69.9066667,288.2 C72.28,288.2 73.16,289.333333 73.24,291 L76.1866667,291 C76.0933333,288.706667 74.6933333,286.6 71.9066667,285.92 L71.9066667,283 L67.9066667,283 L67.9066667,285.88 C65.32,286.44 63.24,288.12 63.24,290.693333 C63.24,293.773333 65.7866667,295.306667 69.5066667,296.2 C72.84,297 73.5066667,298.173333 73.5066667,299.413333 C73.5066667,300.333333 72.8533333,301.8 69.9066667,301.8 C67.16,301.8 66.08,300.573333 65.9333333,299 L63,299 C63.16,301.92 65.3466667,303.56 67.9066667,304.106667 L67.9066667,307 L71.9066667,307 L71.9066667,304.133333 C74.5066667,303.64 76.5733333,302.133333 76.5733333,299.4 C76.5733333,295.613333 73.3333333,294.32 70.3066667,293.533333 L70.3066667,293.533333 Z" id="Shape"></path>
            </g>
        </g>
    </g>
</svg>