<?xml version="1.0" encoding="UTF-8"?>
<svg width="21px" height="20px" viewBox="0 0 21 20" version="1.1" xmlns="http://www.w3.org/2000/svg" xmlns:xlink="http://www.w3.org/1999/xlink">
    <!-- Generator: Sketch 43.1 (39012) - http://www.bohemiancoding.com/sketch -->
    <title>Shape</title>
    <desc>Created with Sketch.</desc>
    <defs></defs>
    <g id="Symbols" stroke="none" stroke-width="1" fill="none" fill-rule="evenodd">
        <g id="Footer" transform="translate(-1555.000000, -219.000000)" fill="#9B9B9B">
            <g id="Group-26" transform="translate(1555.000000, 219.000000)">
                <path d="M4.01,18 C4.01,19.1 4.9,20 6,20 C7.1,20 8,19.1 8,18 C8,16.9 7.1,16 6,16 C4.9,16 4.01,16.9 4.01,18 Z M14.01,18 C14.01,19.1 14.9,20 16,20 C17.1,20 18,19.1 18,18 C18,16.9 17.1,16 16,16 C14.9,16 14.01,16.9 14.01,18 Z M6.2,12.63 L7.1,11 L14.55,11 C15.3,11 15.96,10.59 16.3,9.97 L20.16,2.96 L18.42,2 L17.31,4 L14.55,9 L7.53,9 L7.4,8.73 L5.16,4 L4.21,2 L3.27,0 L0,0 L0,2 L2,2 L5.6,9.59 L4.25,12.04 C4.09,12.32 4,12.65 4,13 C4,14.1 4.9,15 6,15 L18,15 L18,13 L6.42,13 C6.29,13 6.17,12.89 6.17,12.75 L6.2,12.63 Z" id="Shape"></path>
            </g>
        </g>
    </g>
</svg>