<?xml version="1.0" encoding="UTF-8"?>
<svg width="13px" height="27px" viewBox="0 0 13 27" version="1.1" xmlns="http://www.w3.org/2000/svg" xmlns:xlink="http://www.w3.org/1999/xlink">
    <!-- Generator: Sketch 43.1 (39012) - http://www.bohemiancoding.com/sketch -->
    <title>Fill 1</title>
    <desc>Created with Sketch.</desc>
    <defs></defs>
    <g id="Desktop" stroke="none" stroke-width="1" fill="none" fill-rule="evenodd">
        <g id="menu_tecidos_casa_patchwork" transform="translate(-97.000000, -253.000000)" fill="#525252">
            <path d="M100.166566,273.936763 L100.166566,267.709385 C100.166566,267.619854 100.239931,267.545245 100.330706,267.545245 L100.986023,267.545245 C101.076797,267.545245 101.150163,267.619854 101.150163,267.709385 C101.150163,267.798916 101.076797,267.873525 100.986023,267.873525 L100.494846,267.873525 L100.494846,273.772622 L103.608535,273.772622 C103.698066,273.772622 103.771432,273.847232 103.771432,273.936763 C103.771432,274.026293 103.698066,274.100903 103.608535,274.100903 L100.330706,274.100903 C100.239931,274.100903 100.166566,274.026293 100.166566,273.936763 L100.166566,273.936763 Z M105.738626,273.936763 C105.738626,274.026293 105.664017,274.100903 105.574486,274.100903 L104.592132,274.100903 C104.501358,274.100903 104.427992,274.026293 104.427992,273.936763 C104.427992,273.847232 104.501358,273.772622 104.592132,273.772622 L105.574486,273.772622 C105.664017,273.772622 105.738626,273.847232 105.738626,273.936763 L105.738626,273.936763 Z M99.8382854,274.429183 L107.704578,274.429183 L107.704578,267.218208 L99.8382854,267.218208 L99.8382854,274.429183 Z M108.032858,266.562891 L99.5112486,266.562891 C99.3309432,266.562891 99.1829684,266.709622 99.1829684,266.889928 L99.1829684,274.75622 C99.1829684,274.937769 99.3309432,275.0845 99.5112486,275.0845 L108.032858,275.0845 C108.214407,275.0845 108.359895,274.937769 108.359895,274.75622 L108.359895,266.889928 C108.359895,266.709622 108.214407,266.562891 108.032858,266.562891 L108.032858,266.562891 Z M101.150163,261.974428 L100.821883,261.974428 L100.821883,260.008476 C100.821883,259.826927 100.969858,259.680196 101.150163,259.680196 L101.150163,261.974428 Z M101.478443,261.974428 L102.133761,261.974428 L102.133761,259.680196 L101.478443,259.680196 L101.478443,261.974428 Z M102.462041,261.974428 L103.117358,261.974428 L103.117358,259.680196 L102.462041,259.680196 L102.462041,261.974428 Z M104.427992,261.974428 L105.083309,261.974428 L105.083309,259.680196 L104.427992,259.680196 L104.427992,261.974428 Z M106.722224,261.974428 L106.393943,261.974428 L106.393943,259.680196 C106.575492,259.680196 106.722224,259.826927 106.722224,260.008476 L106.722224,261.974428 Z M105.411589,261.974428 L106.066907,261.974428 L106.066907,259.680196 L105.411589,259.680196 L105.411589,261.974428 Z M103.444395,261.974428 L104.099712,261.974428 L104.099712,259.680196 L103.444395,259.680196 L103.444395,261.974428 Z M103.51403,255.029559 C103.619726,254.816923 103.923137,254.816923 104.030077,255.029559 C104.03132,255.032046 104.032564,255.034533 104.033807,255.03702 C104.301157,255.571718 104.46654,256.144966 104.524984,256.735621 L104.725185,259.024879 L102.818921,259.024879 L103.019123,256.739352 C103.07881,256.142479 103.245437,255.567988 103.51403,255.029559 L103.51403,255.029559 Z M103.608535,279.017646 C102.04423,279.017646 100.566968,278.899515 99.3346736,278.676931 C98.8671229,278.592374 98.5276513,278.184511 98.5276513,277.708255 L98.5276513,263.937892 C98.5276513,263.461637 98.8671229,263.055017 99.3346736,262.97046 C101.998221,262.487987 105.746087,262.522805 108.229329,263.038852 C108.685688,263.133357 109.016455,263.539976 109.016455,264.003797 L109.016455,277.642351 C109.016455,278.107414 108.685688,278.512791 108.229329,278.607296 C106.958486,278.872158 105.317085,279.017646 103.608535,279.017646 L103.608535,279.017646 Z M108.42953,262.076393 C108.205702,262.030385 107.964466,261.986863 107.704578,261.944584 L107.704578,260.008476 C107.704578,259.284768 107.117652,258.696599 106.393943,258.696599 L105.683913,258.696599 L105.503607,256.649821 C105.431485,255.926112 105.232528,255.234734 104.909221,254.590608 C104.439183,253.650533 103.101193,253.654263 102.634885,254.589365 C102.311579,255.234734 102.111378,255.926112 102.040499,256.64236 L101.860194,258.696599 L101.150163,258.696599 C100.426454,258.696599 99.8395289,259.284768 99.8395289,260.008476 L99.8395289,261.893601 C99.5982927,261.928419 99.3719782,261.96448 99.1593421,262.001784 C98.2242407,262.170898 97.5452974,262.985382 97.5452974,263.937892 L97.5452974,277.708255 C97.5452974,278.660766 98.2242407,279.475249 99.1593421,279.644363 C100.447594,279.876895 101.985786,280 103.608535,280 C105.381746,280 107.095269,279.847051 108.42953,279.569754 C109.338518,279.380744 109.998809,278.571235 109.998809,277.642351 L109.998809,264.003797 C109.998809,263.076156 109.338518,262.265403 108.42953,262.076393 L108.42953,262.076393 Z" id="Fill-1"></path>
        </g>
    </g>
</svg>