<?xml version="1.0" encoding="UTF-8"?>
<svg width="30px" height="24px" viewBox="0 0 30 24" version="1.1" xmlns="http://www.w3.org/2000/svg" xmlns:xlink="http://www.w3.org/1999/xlink">
    <!-- Generator: Sketch 43.1 (39012) - http://www.bohemiancoding.com/sketch -->
    <title>Icon 24px</title>
    <desc>Created with Sketch.</desc>
    <defs>
        <linearGradient x1="-111.661416%" y1="-78.9248047%" x2="114.21434%" y2="146.464844%" id="linearGradient-1">
            <stop stop-color="#3023AE" offset="0%"></stop>
            <stop stop-color="#C96DD8" offset="100%"></stop>
        </linearGradient>
    </defs>
    <g id="Desktop" stroke="none" stroke-width="1" fill="none" fill-rule="evenodd">
        <g id="guia_de_compra_faq" transform="translate(-1553.000000, -470.000000)">
            <g id="Group-4" transform="translate(1543.000000, 465.000000)">
                <g id="Group-3">
                    <g id="ic_email" transform="translate(8.000000, 0.000000)">
                        <g id="Icon-24px">
                            <path d="M28.3333333,5.66666667 L5.66666667,5.66666667 C4.10833333,5.66666667 2.8475,6.94166667 2.8475,8.5 L2.83333333,25.5 C2.83333333,27.0583333 4.10833333,28.3333333 5.66666667,28.3333333 L28.3333333,28.3333333 C29.8916667,28.3333333 31.1666667,27.0583333 31.1666667,25.5 L31.1666667,8.5 C31.1666667,6.94166667 29.8916667,5.66666667 28.3333333,5.66666667 L28.3333333,5.66666667 Z M28.3333333,11.3333333 L17,18.4166667 L5.66666667,11.3333333 L5.66666667,8.5 L17,15.5833333 L28.3333333,8.5 L28.3333333,11.3333333 L28.3333333,11.3333333 Z" id="Shape" fill="url(#linearGradient-1)"></path>
                            <polygon id="Shape" points="0 0 34 0 34 34 0 34"></polygon>
                        </g>
                    </g>
                </g>
            </g>
        </g>
    </g>
</svg>