<?xml version="1.0" encoding="UTF-8"?>
<svg width="26px" height="18px" viewBox="0 0 26 18" version="1.1" xmlns="http://www.w3.org/2000/svg" xmlns:xlink="http://www.w3.org/1999/xlink">
    <!-- Generator: Sketch 43.1 (39012) - http://www.bohemiancoding.com/sketch -->
    <title>Icon 24px</title>
    <desc>Created with Sketch.</desc>
    <defs></defs>
    <g id="Desktop" stroke="none" stroke-width="1" fill="none" fill-rule="evenodd">
        <g id="home" transform="translate(-1401.000000, -2713.000000)">
            <g id="Group-17" transform="translate(1199.000000, 2345.000000)">
                <g id="Group-19" transform="translate(200.000000, 65.000000)">
                    <g id="Group-13" transform="translate(0.000000, 297.000000)">
                        <g id="Icon-24px">
                            <polygon id="Shape" points="0 0 30 0 30 30 0 30"></polygon>
                            <path d="M20.625,15 C22.35,15 23.7375,13.6 23.7375,11.875 C23.7375,10.15 22.35,8.75 20.625,8.75 C18.9,8.75 17.5,10.15 17.5,11.875 C17.5,13.6 18.9,15 20.625,15 L20.625,15 Z M11.25,13.75 C13.325,13.75 14.9875,12.075 14.9875,10 C14.9875,7.925 13.325,6.25 11.25,6.25 C9.175,6.25 7.5,7.925 7.5,10 C7.5,12.075 9.175,13.75 11.25,13.75 L11.25,13.75 Z M20.625,17.5 C18.3375,17.5 13.75,18.65 13.75,20.9375 L13.75,23.75 L27.5,23.75 L27.5,20.9375 C27.5,18.65 22.9125,17.5 20.625,17.5 L20.625,17.5 Z M11.25,16.25 C8.3375,16.25 2.5,17.7125 2.5,20.625 L2.5,23.75 L11.25,23.75 L11.25,20.9375 C11.25,19.875 11.6625,18.0125 14.2125,16.6 C13.125,16.375 12.075,16.25 11.25,16.25 L11.25,16.25 Z" id="Shape" fill="#9012FE"></path>
                        </g>
                    </g>
                </g>
            </g>
        </g>
    </g>
</svg>