<?xml version="1.0" encoding="UTF-8"?>
<svg width="19px" height="22px" viewBox="0 0 19 22" version="1.1" xmlns="http://www.w3.org/2000/svg" xmlns:xlink="http://www.w3.org/1999/xlink">
    <!-- Generator: Sketch 43.1 (39012) - http://www.bohemiancoding.com/sketch -->
    <title>Fill 1</title>
    <desc>Created with Sketch.</desc>
    <defs></defs>
    <g id="Desktop" stroke="none" stroke-width="1" fill="none" fill-rule="evenodd">
        <g id="menu_tecidos_casa_patchwork" transform="translate(-1063.000000, -253.000000)" fill="#525252">
            <path d="M1080.87522,270.497776 L1073.30218,273.383098 C1073.16406,273.45174 1073.06136,273.348777 1072.99289,273.31564 C1072.9256,273.280136 1072.89018,273.177173 1072.9256,273.005568 L1080.87522,255.002482 L1080.87522,270.39363 L1080.87522,270.497776 Z M1064.97361,270.360492 C1064.80362,270.360492 1064.73397,270.25753 1064.73397,270.187704 C1064.70091,270.154567 1064.6655,270.017283 1064.80362,269.88 L1079.81394,254.832061 L1072.99289,270.360492 L1064.97361,270.360492 Z M1081.86922,254.247422 C1081.80075,253.801251 1081.52687,253.422537 1081.08063,253.215429 C1080.60252,253.010687 1080.0524,253.113649 1079.677,253.491179 L1064.08232,269.156894 C1063.70573,269.536791 1063.60303,270.084742 1063.80844,270.567601 C1064.01503,271.048094 1064.49432,271.356982 1065.00903,271.356982 L1072.58207,271.356982 L1072.03312,272.593718 C1071.82771,273.07421 1071.93042,273.624528 1072.27395,274.002058 C1072.5136,274.276625 1072.85595,274.415092 1073.19948,274.415092 C1073.36947,274.415092 1073.5076,274.379588 1073.67877,274.312129 L1081.90346,271.184194 L1081.90346,270.324988 L1081.90346,254.452164 L1081.90346,254.419027 C1081.90346,254.349202 1081.86922,254.316064 1081.86922,254.247422 L1081.86922,254.247422 Z" id="Fill-1"></path>
        </g>
    </g>
</svg>