<?xml version="1.0" encoding="UTF-8"?>
<svg width="15px" height="18px" viewBox="0 0 15 18" version="1.1" xmlns="http://www.w3.org/2000/svg" xmlns:xlink="http://www.w3.org/1999/xlink">
    <!-- Generator: Sketch 43.1 (39012) - http://www.bohemiancoding.com/sketch -->
    <title>Shape</title>
    <desc>Created with Sketch.</desc>
    <defs></defs>
    <g id="Symbols" stroke="none" stroke-width="1" fill="none" fill-rule="evenodd">
        <g id="Footer-+-Menu" transform="translate(-22.000000, -1695.000000)" fill="#FFFFFF">
            <g id="Group-32" transform="translate(10.000000, 1687.000000)">
                <path d="M19.2,8 L14.7,12.5 L19.2,17 L19.2,13.4 C22.179,13.4 24.6,15.821 24.6,18.8 C24.6,21.779 22.179,24.2 19.2,24.2 C16.221,24.2 13.8,21.779 13.8,18.8 L12,18.8 C12,22.778 15.222,26 19.2,26 C23.178,26 26.4,22.778 26.4,18.8 C26.4,14.822 23.178,11.6 19.2,11.6 L19.2,8 Z" id="Shape"></path>
            </g>
        </g>
    </g>
</svg>