<?xml version="1.0" encoding="UTF-8"?>
<svg width="26px" height="24px" viewBox="0 0 26 24" version="1.1" xmlns="http://www.w3.org/2000/svg" xmlns:xlink="http://www.w3.org/1999/xlink">
    <!-- Generator: Sketch 43.1 (39012) - http://www.bohemiancoding.com/sketch -->
    <title>Group 4</title>
    <desc>Created with Sketch.</desc>
    <defs></defs>
    <g id="Mobile" stroke="none" stroke-width="1" fill="none" fill-rule="evenodd">
        <g id="Menu_2" transform="translate(-29.000000, -224.000000)" fill="#525252">
            <g id="Group-7" transform="translate(29.000000, 224.000000)">
                <g id="Group-4">
                    <path d="M17.4059715,21.2523193 L20.8423943,21.2523193 L20.8423943,17.780014 L17.4059715,17.780014 L17.4059715,21.2523193 Z M17.4059715,16.9122305 L25.1379229,16.9122305 L25.1379229,15.1754923 L17.4059715,15.1754923 L17.4059715,16.9122305 Z M21.7015,21.2511482 L25.1379229,21.2511482 L25.1379229,17.7788429 L21.7015,17.7788429 L21.7015,21.2511482 Z M18.7879607,14.3088798 L16.9758389,14.3088798 C16.7381646,14.3088798 16.5457064,14.5032821 16.5457064,14.7421861 L16.5457064,17.3455367 L16.5457064,21.6856255 L16.5457064,23.8544989 L17.4059715,23.8544989 L17.4059715,22.1201029 L25.1379229,22.1201029 L25.1379229,23.8544989 L25.9970286,23.8544989 L25.9970286,21.6856255 L25.9970286,17.3455367 L25.9970286,14.7421861 C25.9970286,14.5032821 25.8057297,14.3088798 25.5680554,14.3088798 L23.7547743,14.3088798 L18.7879607,14.3088798 Z" id="Fill-4"></path>
                    <polygon id="Fill-6" points="22.5606057 19.9488874 23.4197114 19.9488874 23.4197114 19.0822749 22.5606057 19.0822749"></polygon>
                    <polygon id="Fill-7" points="19.1230235 19.9488874 19.9832886 19.9488874 19.9832886 19.0822749 19.1230235 19.0822749"></polygon>
                    <path d="M2.16064417,8.67830391 L10.7528607,8.67830391 L10.7528607,3.47160263 L2.16064417,3.47160263 L2.16064417,8.67830391 Z M6.45617273,0.954913231 L8.90479792,2.60264798 L4.00870693,2.60264798 L6.45617273,0.954913231 Z M1.73051162,9.54725855 L11.1818338,9.54725855 C11.4195082,9.54725855 11.6119664,9.3528563 11.6119664,9.11395233 L11.6119664,3.0382964 C11.6119664,2.79822133 11.4195082,2.60264798 11.1818338,2.60264798 L10.4537388,2.60264798 L6.69500644,0.0730765092 C6.55008307,-0.0241246168 6.36342178,-0.0241246168 6.21849841,0.0730765092 L2.459766,2.60264798 L1.73051162,2.60264798 C1.49399669,2.60264798 1.30153846,2.79822133 1.30153846,3.0382964 L1.30153846,9.11395233 C1.30153846,9.3528563 1.49399669,9.54725855 1.73051162,9.54725855 L1.73051162,9.54725855 Z" id="Fill-9"></path>
                    <path d="M1.08029636,16.9125818 C1.08029636,16.4336028 1.4663722,16.0447983 1.93940207,16.0447983 C2.41359132,16.0447983 2.79850778,16.4336028 2.79850778,16.9125818 L2.79850778,19.0826262 C2.79850778,19.3227013 2.99096601,19.5159325 3.22864033,19.5159325 L9.24238031,19.5159325 C9.48121402,19.5159325 9.67251286,19.3227013 9.67251286,19.0826262 L9.67251286,16.9125818 C9.67251286,16.4336028 10.0574293,16.0447983 10.5316186,16.0447983 C11.0058078,16.0447983 11.3907243,16.4336028 11.3907243,16.9125818 L11.3907243,21.2514996 L1.08029636,21.2514996 L1.08029636,16.9125818 Z M2.36953462,13.8735828 C2.36953462,13.1568708 2.94806869,12.572493 3.65761349,12.572493 L8.81340715,12.572493 C9.52411133,12.572493 10.1026454,13.1568708 10.1026454,13.8735828 L10.1026454,15.2308852 C10.0423573,15.2461095 9.98670672,15.2707026 9.92873737,15.2917823 C9.90207147,15.3023222 9.87540557,15.3093488 9.84989906,15.3210598 C9.75482933,15.3620482 9.66439715,15.4112343 9.57976191,15.4686181 C9.56121172,15.4803291 9.5449803,15.4967245 9.52758949,15.5107776 C9.46150444,15.5587926 9.40005693,15.6091499 9.34208759,15.6653626 C9.31658107,15.6899556 9.29223395,15.718062 9.26904621,15.7449972 C9.22383012,15.7941833 9.1809328,15.8468827 9.14151365,15.9007532 C9.11832591,15.9323729 9.09745695,15.9651636 9.07658798,16.0002966 C9.04296576,16.0553382 9.01050293,16.1127219 8.98383703,16.173619 C8.96644622,16.2099231 8.95021481,16.245056 8.93514278,16.28136 C8.90963626,16.3492837 8.88992669,16.4160363 8.87253588,16.4874733 C8.86326079,16.520264 8.8528263,16.5518837 8.84702937,16.5870166 C8.82500102,16.6935865 8.81340715,16.8001564 8.81340715,16.9125818 L8.81340715,18.6469778 L3.65761349,18.6469778 L3.65761349,16.9125818 C3.65761349,16.8001564 3.64486024,16.6935865 3.62515066,16.5870166 C3.61935372,16.5518837 3.60891924,16.520264 3.59964415,16.4863022 C3.58225334,16.4160363 3.56254376,16.3469415 3.53587786,16.28136 C3.52196522,16.245056 3.5057338,16.208752 3.488343,16.173619 C3.46051771,16.1127219 3.42921427,16.0553382 3.39559205,15.9991255 C3.37472308,15.9651636 3.35385412,15.9323729 3.33066638,15.9007532 C3.29124722,15.8457116 3.24834991,15.7941833 3.20313382,15.7449972 C3.17878669,15.7168909 3.15675834,15.6887845 3.13009244,15.6641915 C3.07212309,15.6079788 3.0095162,15.5576215 2.94459053,15.5107776 C2.92719973,15.4967245 2.91096831,15.4803291 2.89241812,15.4686181 C2.80778288,15.4100632 2.7173507,15.3608771 2.62228097,15.3198887 C2.59677446,15.3081777 2.56894917,15.3011511 2.54344266,15.2906112 C2.48547331,15.2707026 2.42866335,15.2461095 2.36953462,15.2308852 L2.36953462,13.8735828 Z M9.67251286,22.9870666 L10.5316186,22.9870666 L10.5316186,22.1192831 L9.67251286,22.1192831 L9.67251286,22.9870666 Z M1.93940207,22.9870666 L2.79850778,22.9870666 L2.79850778,22.1192831 L1.93940207,22.1192831 L1.93940207,22.9870666 Z M0.650163808,22.1192831 L1.08029636,22.1192831 L1.08029636,23.421544 C1.08029636,23.6604479 1.27275459,23.8548502 1.51042891,23.8548502 L3.22864033,23.8548502 C3.46631465,23.8548502 3.65761349,23.6604479 3.65761349,23.421544 L3.65761349,22.1192831 L8.81340715,22.1192831 L8.81340715,23.421544 C8.81340715,23.6604479 9.00586538,23.8548502 9.24238031,23.8548502 L10.9605917,23.8548502 C11.1994254,23.8548502 11.3907243,23.6604479 11.3907243,23.421544 L11.3907243,22.1192831 L11.8196974,22.1192831 C12.0585312,22.1192831 12.24983,21.9248808 12.24983,21.6859769 L12.24983,16.9125818 C12.24983,16.1068665 11.7002806,15.431143 10.9605917,15.2379118 L10.9605917,13.8735828 C10.9605917,12.6778918 9.9971412,11.7058805 8.81340715,11.7058805 L3.65761349,11.7058805 C2.47387944,11.7058805 1.51042891,12.6778918 1.51042891,13.8735828 L1.51042891,15.2379118 C0.770740048,15.431143 0.221190645,16.1068665 0.221190645,16.9125818 L0.221190645,21.6859769 C0.221190645,21.9248808 0.413648875,22.1192831 0.650163808,22.1192831 L0.650163808,22.1192831 Z" id="Fill-1"></path>
                </g>
            </g>
        </g>
    </g>
</svg>