<?xml version="1.0" encoding="UTF-8"?>
<svg width="17px" height="17px" viewBox="0 0 17 17" version="1.1" xmlns="http://www.w3.org/2000/svg" xmlns:xlink="http://www.w3.org/1999/xlink">
    <!-- Generator: Sketch 43.1 (39012) - http://www.bohemiancoding.com/sketch -->
    <title>Icon 24px</title>
    <desc>Created with Sketch.</desc>
    <defs></defs>
    <g id="Mobile" stroke="none" stroke-width="1" fill="none" fill-rule="evenodd">
        <g id="Menu" transform="translate(-33.000000, -628.000000)">
            <g id="ic_info_outline" transform="translate(32.000000, 626.000000)">
                <g id="Icon-24px">
                    <polygon id="Shape" points="0 0 20 0 20 20 0 20"></polygon>
                    <path d="M8.5,14.5 L10.1666667,14.5 L10.1666667,9.5 L8.5,9.5 L8.5,14.5 L8.5,14.5 Z M9.33333333,2 C4.73333333,2 1,5.73333333 1,10.3333333 C1,14.9333333 4.73333333,18.6666667 9.33333333,18.6666667 C13.9333333,18.6666667 17.6666667,14.9333333 17.6666667,10.3333333 C17.6666667,5.73333333 13.9333333,2 9.33333333,2 L9.33333333,2 Z M9.33333333,17 C5.65833333,17 2.66666667,14.0083333 2.66666667,10.3333333 C2.66666667,6.65833333 5.65833333,3.66666667 9.33333333,3.66666667 C13.0083333,3.66666667 16,6.65833333 16,10.3333333 C16,14.0083333 13.0083333,17 9.33333333,17 L9.33333333,17 Z M8.5,7.83333333 L10.1666667,7.83333333 L10.1666667,6.16666667 L8.5,6.16666667 L8.5,7.83333333 L8.5,7.83333333 Z" id="Shape" fill="#9B9B9B"></path>
                </g>
            </g>
        </g>
    </g>
</svg>