<?xml version="1.0" encoding="UTF-8"?>
<svg width="24px" height="11px" viewBox="0 0 24 11" version="1.1" xmlns="http://www.w3.org/2000/svg" xmlns:xlink="http://www.w3.org/1999/xlink">
    <!-- Generator: Sketch 43.1 (39012) - http://www.bohemiancoding.com/sketch -->
    <title>Fill 1</title>
    <desc>Created with Sketch.</desc>
    <defs></defs>
    <g id="Desktop" stroke="none" stroke-width="1" fill="none" fill-rule="evenodd">
        <g id="menu_tecidos_casa_patchwork" transform="translate(-1779.000000, -259.000000)" fill="#525252">
            <path d="M1800.25953,266.605783 L1800.16754,266.961609 L1800.2383,267.011141 C1799.95526,267.141543 1799.31235,267.354837 1797.89107,267.589359 C1796.7781,267.772326 1794.45007,268.080641 1791.375,268.080641 C1788.30095,268.080641 1785.97291,267.772326 1784.85893,267.589359 C1783.43866,267.354837 1782.79676,267.141543 1782.51068,267.012152 L1782.58549,266.959587 L1781.29461,262.142793 C1781.87384,262.29038 1782.8008,262.492554 1784.10584,262.584543 C1784.5021,262.613859 1784.93273,262.63913 1785.38964,262.663391 C1785.38459,262.741228 1785.38257,262.819065 1785.38257,262.895891 C1785.38257,265.62625 1788.07047,267.848141 1791.37601,267.848141 C1794.67953,267.848141 1797.36946,265.62625 1797.36946,262.895891 C1797.36946,262.819065 1797.36642,262.741228 1797.36238,262.663391 C1797.81929,262.63913 1798.24992,262.613859 1798.64618,262.584543 C1799.94818,262.492554 1800.87616,262.291391 1801.45539,262.143804 L1800.25953,266.605783 Z M1791.375,263.869359 C1793.87791,263.869359 1795.17486,264.450609 1795.70051,264.771054 C1794.86048,265.975 1793.23702,266.792793 1791.37601,266.792793 C1789.49074,266.792793 1787.84909,265.952761 1787.01714,264.723543 C1787.64186,264.390967 1788.99642,263.869359 1791.375,263.869359 L1791.375,263.869359 Z M1801.48471,260.187772 C1800.90952,260.08163 1800.09982,259.986609 1799.07783,259.90675 C1798.67853,259.875413 1798.24487,259.846098 1797.78998,259.819815 L1796.11295,259.740967 C1795.90066,259.73288 1795.68636,259.724793 1795.467,259.718728 L1793.96687,259.680315 C1793.80614,259.677283 1793.64339,259.67425 1793.4857,259.672228 L1793.45739,259.671217 L1793.45133,260.199902 L1793.46346,260.728587 C1793.62621,260.730609 1793.78693,260.73263 1793.94968,260.735663 L1795.43465,260.774076 C1795.64997,260.781152 1795.86225,260.788228 1796.07453,260.796315 L1797.68788,260.873141 C1798.15086,260.898413 1798.5916,260.928739 1798.99493,260.960076 C1799.80161,261.023761 1800.46373,261.095533 1800.97422,261.17337 C1800.42835,261.302761 1799.6338,261.455402 1798.57138,261.530207 C1798.02046,261.570641 1797.40484,261.606022 1796.7407,261.636348 C1796.58502,261.643424 1796.44249,261.717217 1796.34747,261.839533 C1796.25245,261.960837 1796.21605,262.119543 1796.24638,262.270163 C1796.28985,262.480424 1796.3131,262.690685 1796.3131,262.895891 C1796.3131,263.214315 1796.26255,263.523641 1796.17057,263.819826 C1795.99063,263.715707 1795.76824,263.600467 1795.49227,263.488261 C1794.3975,263.040446 1793.01261,262.813 1791.375,262.813 C1788.86703,262.813 1787.35275,263.356848 1786.56528,263.768272 C1786.4834,263.48725 1786.43892,263.19612 1786.43892,262.895891 C1786.43892,262.692707 1786.46217,262.481435 1786.50564,262.270163 C1786.53597,262.119543 1786.49958,261.960837 1786.40455,261.839533 C1786.30953,261.717217 1786.16599,261.643424 1786.01133,261.636348 C1785.34718,261.606022 1784.73157,261.570641 1784.18064,261.530207 C1783.11721,261.455402 1782.32165,261.302761 1781.77679,261.17337 C1782.28728,261.095533 1782.94738,261.023761 1783.75304,260.960076 C1784.15739,260.928739 1784.59813,260.898413 1785.06111,260.873141 L1786.67547,260.797326 C1786.88674,260.789239 1787.09801,260.781152 1787.31333,260.774076 L1788.80234,260.736674 C1788.96104,260.733641 1789.12177,260.730609 1789.29665,260.728587 L1790.3985,260.716457 C1790.51172,260.715446 1790.62696,260.714435 1790.7422,260.714435 L1791.375,260.712413 L1793.44425,260.728587 L1793.45133,260.199902 L1793.43717,259.671217 L1791.375,259.656054 L1790.73714,259.658076 C1790.62089,259.658076 1790.50565,259.659087 1790.39243,259.660098 L1789.27037,259.672228 C1789.10661,259.67425 1788.94386,259.677283 1788.77605,259.680315 L1787.28098,259.718728 C1787.06263,259.725804 1786.84833,259.73288 1786.63807,259.740967 L1785.01865,259.816783 L1784.97013,259.819815 C1784.5112,259.846098 1784.07349,259.875413 1783.67116,259.90675 C1782.64816,259.986609 1781.83846,260.08163 1781.26428,260.187772 C1780.773,260.27875 1779.75,260.468793 1779.75,261.276478 C1779.75,261.45338 1779.80964,261.757652 1780.16243,261.996217 L1781.39873,266.611848 C1781.32797,266.736185 1781.29158,266.875685 1781.29158,267.026304 C1781.29158,267.798609 1782.18013,268.21812 1784.68709,268.631565 C1785.83341,268.819587 1788.22614,269.137 1791.375,269.137 C1794.52487,269.137 1796.9176,268.819587 1798.06291,268.631565 C1800.56987,268.21913 1801.45741,267.798609 1801.45741,267.026304 C1801.45741,266.875685 1801.42102,266.736185 1801.35127,266.611848 L1802.58757,261.996217 C1802.94036,261.757652 1803,261.45338 1803,261.276478 C1803,260.468793 1801.97599,260.27875 1801.48471,260.187772 L1801.48471,260.187772 Z" id="Fill-1"></path>
        </g>
    </g>
</svg>