<?xml version="1.0" encoding="UTF-8"?>
<svg width="26px" height="26px" viewBox="0 0 26 26" version="1.1" xmlns="http://www.w3.org/2000/svg" xmlns:xlink="http://www.w3.org/1999/xlink">
    <!-- Generator: Sketch 43.1 (39012) - http://www.bohemiancoding.com/sketch -->
    <title>ic_call</title>
    <desc>Created with Sketch.</desc>
    <defs>
        <linearGradient x1="-111.661416%" y1="-78.9248047%" x2="114.21434%" y2="146.464844%" id="linearGradient-1">
            <stop stop-color="#3023AE" offset="0%"></stop>
            <stop stop-color="#C96DD8" offset="100%"></stop>
        </linearGradient>
    </defs>
    <g id="Desktop" stroke="none" stroke-width="1" fill="none" fill-rule="evenodd">
        <g id="guia_de_compra_faq" transform="translate(-1671.000000, -469.000000)">
            <g id="Group-4" transform="translate(1543.000000, 465.000000)">
                <g id="Group-2" transform="translate(107.000000, 0.000000)">
                    <g id="ic_call" transform="translate(17.000000, 0.000000)">
                        <g id="Icon-24px">
                            <polygon id="Shape" points="0 0 34 0 34 34 0 34"></polygon>
                            <path d="M9.37833333,15.2858333 C11.4183333,19.295 14.705,22.5675 18.7141667,24.6216667 L21.8308333,21.505 C22.2133333,21.1225 22.78,20.995 23.2758333,21.165 C24.8625,21.6891667 26.5766667,21.9725 28.3333333,21.9725 C29.1125,21.9725 29.75,22.61 29.75,23.3891667 L29.75,28.3333333 C29.75,29.1125 29.1125,29.75 28.3333333,29.75 C15.0308333,29.75 4.25,18.9691667 4.25,5.66666667 C4.25,4.8875 4.8875,4.25 5.66666667,4.25 L10.625,4.25 C11.4041667,4.25 12.0416667,4.8875 12.0416667,5.66666667 C12.0416667,7.4375 12.325,9.1375 12.8491667,10.7241667 C13.005,11.22 12.8916667,11.7725 12.495,12.1691667 L9.37833333,15.2858333 L9.37833333,15.2858333 Z" id="Shape" fill="url(#linearGradient-1)"></path>
                        </g>
                    </g>
                </g>
            </g>
        </g>
    </g>
</svg>