<?xml version="1.0" encoding="UTF-8"?>
<svg width="18px" height="21px" viewBox="0 0 18 21" version="1.1" xmlns="http://www.w3.org/2000/svg" xmlns:xlink="http://www.w3.org/1999/xlink">
    <!-- Generator: Sketch 43.1 (39012) - http://www.bohemiancoding.com/sketch -->
    <title>Fill 1</title>
    <desc>Created with Sketch.</desc>
    <defs></defs>
    <g id="Desktop" stroke="none" stroke-width="1" fill="none" fill-rule="evenodd">
        <g id="menu_tecidos_casa_patchwork" transform="translate(-448.000000, -254.000000)" fill="#525252">
            <path d="M464.757642,271.961312 C464.757642,272.646147 464.20128,273.202509 463.516446,273.202509 L460.413986,273.202509 L460.413986,264.513073 C460.413986,264.170125 460.135805,263.891944 459.792857,263.891944 L454.206943,263.891944 C453.863995,263.891944 453.585814,264.170125 453.585814,264.513073 L453.585814,273.202509 L450.483354,273.202509 C449.79852,273.202509 449.242158,272.646147 449.242158,271.961312 L449.242158,262.025372 L456.999369,255.990334 L464.757642,262.025372 L464.757642,271.961312 Z M454.828072,273.202509 L459.170666,273.202509 L459.170666,265.134202 L454.828072,265.134202 L454.828072,273.202509 Z M465.759942,261.230114 L457.380541,254.7141 C457.157571,254.539971 456.842229,254.539971 456.618198,254.7141 L448.239858,261.230114 C448.088026,261.346908 447.9999,261.528469 447.9999,261.719585 L447.9999,271.961312 C447.9999,273.330982 449.113685,274.443705 450.483354,274.443705 L463.516446,274.443705 C464.886115,274.443705 465.9999,273.330982 465.9999,271.961312 L465.9999,261.719585 C465.9999,261.528469 465.910712,261.346908 465.759942,261.230114 L465.759942,261.230114 Z" id="Fill-1"></path>
        </g>
    </g>
</svg>