<?xml version="1.0" encoding="UTF-8"?>
<svg width="22px" height="24px" viewBox="0 0 22 24" version="1.1" xmlns="http://www.w3.org/2000/svg" xmlns:xlink="http://www.w3.org/1999/xlink">
    <!-- Generator: Sketch 43.1 (39012) - http://www.bohemiancoding.com/sketch -->
    <title>Group 2</title>
    <desc>Created with Sketch.</desc>
    <defs></defs>
    <g id="Desktop" stroke="none" stroke-width="1" fill="none" fill-rule="evenodd">
        <g id="menu_moveis" transform="translate(-364.000000, -195.000000)" fill="#000000">
            <g id="Group-2" transform="translate(364.000000, 195.000000)">
                <path d="M6.66106888,17.7207562 L6.66106888,13.6319948 L14.0537483,13.6319948 L14.0537483,17.3008595 C13.0489596,16.942343 11.9971382,16.7512273 10.9424664,16.7512273 L10.9196627,16.7512273 L10.8997094,16.7512273 C9.63695371,16.7512273 8.37419798,17.0065133 7.19695619,17.5184804 C7.02165263,17.5979957 6.84064814,17.6579809 6.66106888,17.7207562 L6.66106888,17.7207562 Z M6.66106888,12.1853739 L14.0537483,12.1853739 L14.0537483,10.0133502 L6.66106888,10.0133502 L6.66106888,12.1853739 Z M6.66106888,8.56672941 L14.0537483,8.56672941 L14.0537483,6.39470568 L6.66106888,6.39470568 L6.66106888,8.56672941 Z M13.3140528,0 L11.817559,0 C11.4099426,0 11.0792887,0.3236413 11.0792887,0.724007908 C11.0792887,1.12437452 11.4099426,1.44662081 11.817559,1.44662081 L13.3140528,1.44662081 C13.7230944,1.44662081 14.0537483,1.77026211 14.0537483,2.17202372 L14.0537483,4.94808487 L6.66106888,4.94808487 L6.66106888,2.17202372 C6.66106888,0.975108916 5.6662568,0 4.44340758,0 L2.94691377,0 C2.53787213,0 2.20721826,0.3236413 2.20721826,0.724007908 C2.20721826,1.12437452 2.53787213,1.44662081 2.94691377,1.44662081 L4.44340758,1.44662081 C4.85102399,1.44662081 5.18310309,1.77026211 5.18310309,2.17202372 L5.18310309,18.0806676 C4.8296455,18.1294928 4.47476269,18.164368 4.11845464,18.164368 C3.06805851,18.1615779 2.01766238,17.9495371 1.03995309,17.5184804 C0.9430373,17.4766302 0.840420582,17.4571001 0.740654328,17.4571001 C0.455607888,17.4571001 0.186239003,17.6175258 0.0636690337,17.8867618 C-0.0973822047,18.2383033 0.0579681049,18.6470399 0.407149993,18.8214156 L0.397173368,18.8423407 C1.57298993,19.3557027 2.83574566,19.6109888 4.09850139,19.6109888 L4.11845464,19.6109888 L4.13840789,19.6109888 C5.40116362,19.6109888 6.66391934,19.3557027 7.84116114,18.8423407 C8.81887043,18.415469 9.86784132,18.2020331 10.9196627,18.2006381 C11.971484,18.2020331 13.0204549,18.415469 13.9981642,18.8423407 C15.175406,19.3557027 16.4381618,19.6109888 17.7009175,19.6109888 L17.7208707,19.6109888 L17.740824,19.6109888 C19.0035797,19.6109888 20.2663354,19.3557027 21.442152,18.8423407 L21.4321754,18.8214156 C21.7813573,18.6470399 21.9367076,18.2383033 21.7756563,17.8867618 C21.6545116,17.6175258 21.3837175,17.4571001 21.1000963,17.4571001 C21.00033,17.4571001 20.8977133,17.4766302 20.8007975,17.5184804 C19.821663,17.9495371 18.7726921,18.1615779 17.7208707,18.164368 C16.9583715,18.164368 16.1944471,18.0443975 15.4590272,17.8198016 C15.5046347,17.7263362 15.5317141,17.6272908 15.5317141,17.5184804 L15.5317141,2.17202372 C15.5317141,0.975108916 14.536902,0 13.3140528,0 L13.3140528,0 Z" id="Fill-1"></path>
                <path d="M10.940789,21.1376147 L10.9208357,21.1376147 L10.9008825,21.1376147 C9.63670153,21.1376147 8.37537103,21.3942957 7.19812924,21.9090528 C6.22041995,22.3345295 5.17002382,22.5493603 4.11820246,22.5521504 C3.06780632,22.5493603 2.01741019,22.3345295 1.04112614,21.9090528 C0.941359885,21.8644126 0.838743167,21.8448825 0.737551681,21.8448825 C0.455355706,21.8448825 0.18598682,22.0053082 0.0634168513,22.2731492 C-0.0976343871,22.6274807 0.0591411547,23.0334273 0.408323043,23.207803 L0.398346418,23.2287281 C1.57273775,23.7406951 2.83549348,23.9987712 4.09967444,23.9987712 L4.10965106,23.9987712 L4.14813233,23.9987712 C5.40803759,23.9987712 6.66651763,23.7420901 7.84090896,23.2287281 C8.82004348,22.8018564 9.86901437,22.5898155 10.9208357,22.5856305 C11.9712319,22.5898155 13.0202028,22.8018564 13.9993373,23.2287281 C15.1765791,23.7434851 16.4421853,23.9987712 17.7063662,23.9987712 L17.7163429,23.9987712 L17.7362961,23.9987712 C19.0004771,23.9987712 20.264658,23.7420901 21.4418998,23.2287281 L21.4333484,23.207803 C21.7825303,23.0334273 21.9378806,22.6260857 21.7768294,22.2731492 C21.6556847,22.0053082 21.3863158,21.8448825 21.1026946,21.8448825 C21.0029283,21.8448825 20.8988864,21.8644126 20.8005453,21.9090528 C19.822836,22.3345295 18.7724399,22.5493603 17.7220438,22.5521504 C16.6716477,22.5493603 15.6212515,22.3345295 14.642117,21.9090528 C13.4648752,21.3942957 12.2035447,21.1376147 10.940789,21.1376147" id="Fill-3"></path>
            </g>
        </g>
    </g>
</svg>