<?xml version="1.0" encoding="UTF-8"?>
<svg width="30px" height="24px" viewBox="0 0 30 24" version="1.1" xmlns="http://www.w3.org/2000/svg" xmlns:xlink="http://www.w3.org/1999/xlink">
    <!-- Generator: Sketch 43.1 (39012) - http://www.bohemiancoding.com/sketch -->
    <title>Shape</title>
    <desc>Created with Sketch.</desc>
    <defs></defs>
    <g id="Desktop" stroke="none" stroke-width="1" fill="none" fill-rule="evenodd">
        <g id="single_produto_comum" transform="translate(-1824.000000, -805.000000)" fill="#9B9B9B">
            <g id="Group-14" transform="translate(1769.000000, 375.000000)">
                <path d="M82,430 L58,430 C56.335,430 55.015,431.335 55.015,433 L55,451 C55,452.665 56.335,454 58,454 L82,454 C83.665,454 85,452.665 85,451 L85,433 C85,431.335 83.665,430 82,430 L82,430 Z M82,451 L58,451 L58,442 L82,442 L82,451 L82,451 Z M82,436 L58,436 L58,433 L82,433 L82,436 L82,436 Z" id="Shape"></path>
            </g>
        </g>
    </g>
</svg>