<?xml version="1.0" encoding="UTF-8"?>
<svg width="90px" height="100px" viewBox="0 0 90 100" version="1.1" xmlns="http://www.w3.org/2000/svg" xmlns:xlink="http://www.w3.org/1999/xlink">
    <!-- Generator: Sketch 43.1 (39012) - http://www.bohemiancoding.com/sketch -->
    <title>Fill 1</title>
    <desc>Created with Sketch.</desc>
    <defs></defs>
    <g id="Desktop" stroke="none" stroke-width="1" fill="none" fill-rule="evenodd">
        <g id="menu_tecidos_decoracao" transform="translate(-1361.000000, -214.000000)" fill="#525252">
            <path d="M1410.5794,244.956957 L1410.5794,245.256957 C1410.5794,246.248261 1411.37673,247.043913 1412.36473,247.043913 C1413.35273,247.043913 1414.14573,246.248261 1414.14573,245.256957 L1414.14573,244.956957 C1414.14573,243.97 1413.35273,243.174348 1412.36473,243.174348 C1411.37673,243.174348 1410.5794,243.97 1410.5794,244.956957 L1410.5794,244.956957 Z M1382.02707,238.096087 C1383.02373,238.096087 1383.81673,237.291739 1383.81673,236.304783 L1383.81673,236.013478 C1383.81673,235.022174 1383.02373,234.217826 1382.02707,234.217826 C1381.04773,234.217826 1380.24607,235.022174 1380.24607,236.013478 L1380.24607,236.304783 C1380.24607,237.291739 1381.04773,238.096087 1382.02707,238.096087 L1382.02707,238.096087 Z M1385.63673,232.948261 C1386.62473,232.948261 1387.41773,232.152609 1387.41773,231.156957 L1387.41773,230.865652 C1387.41773,229.874348 1386.62473,229.07 1385.63673,229.07 C1384.64873,229.07 1383.8514,229.874348 1383.8514,230.865652 L1383.8514,231.156957 C1383.8514,232.152609 1384.64873,232.948261 1385.63673,232.948261 L1385.63673,232.948261 Z M1387.34407,236.304783 C1387.34407,237.291739 1388.14573,238.096087 1389.13373,238.096087 C1390.11307,238.096087 1390.9104,237.291739 1390.9104,236.304783 L1390.9104,236.013478 C1390.9104,235.022174 1390.11307,234.217826 1389.13373,234.217826 C1388.14573,234.217826 1387.34407,235.022174 1387.34407,236.013478 L1387.34407,236.304783 Z M1395.6814,224.778696 C1396.04107,225.187391 1396.53073,225.400435 1397.02907,225.400435 C1397.44507,225.400435 1397.85673,225.248261 1398.19907,224.952609 C1398.94007,224.304783 1399.02673,223.174348 1398.37673,222.426522 L1393.5754,216.900435 C1392.93407,216.156957 1391.79873,216.078696 1391.0534,216.726522 C1390.30807,217.374348 1390.24307,218.504783 1390.8844,219.252609 L1395.6814,224.778696 Z M1410.83507,226.87 C1411.2034,226.87 1411.57607,226.743913 1411.90107,226.50913 L1417.74673,222.10913 C1418.5354,221.517826 1418.69573,220.400435 1418.10207,219.600435 C1417.51273,218.817826 1416.39907,218.656957 1415.60607,219.243913 L1409.7604,223.639565 C1408.97607,224.23087 1408.8114,225.352609 1409.40507,226.148261 C1409.75607,226.613478 1410.28907,226.87 1410.83507,226.87 L1410.83507,226.87 Z M1403.73273,224.313478 C1403.79773,224.322174 1403.8584,224.326522 1403.91907,224.326522 C1404.82473,224.326522 1405.6004,223.643913 1405.69573,222.726522 L1406.4064,215.983043 C1406.5104,215.000435 1405.7954,214.117826 1404.8204,214.00913 C1403.81507,213.896087 1402.9614,214.622174 1402.8574,215.604783 L1402.14673,222.343913 C1402.04273,223.33087 1402.7534,224.217826 1403.73273,224.313478 L1403.73273,224.313478 Z M1450.35073,305.339565 C1450.03007,304.40913 1448.99873,303.922174 1448.07573,304.261304 L1442.16507,306.374348 L1434.65973,285.296087 C1438.2824,283.548261 1441.19007,280.561304 1442.7804,276.904783 C1444.44873,273.035217 1444.46607,268.800435 1442.8324,265.022174 L1429.92773,233.596087 C1429.5464,232.678696 1428.5064,232.243913 1427.59207,232.622174 C1426.67773,232.996087 1426.24873,234.043913 1426.6214,234.961304 L1439.5434,266.417826 C1440.79573,269.30913 1440.7784,272.526522 1439.50873,275.478696 C1438.07873,278.774348 1435.27073,281.378696 1431.80407,282.617826 C1428.32007,283.87 1424.31173,283.596087 1421.0834,281.887391 C1418.29273,280.396087 1416.34273,277.974348 1415.5714,274.983043 L1409.52207,255.043913 L1430.20507,255.043913 C1431.19307,255.043913 1431.9904,254.248261 1431.9904,253.261304 C1431.9904,252.274348 1431.19307,251.47 1430.20507,251.47 L1408.4344,251.47 L1405.70007,242.465652 C1405.41407,241.517826 1404.4174,240.983043 1403.47273,241.274348 C1402.5324,241.561304 1402.00373,242.561304 1402.2854,243.50913 L1412.13507,275.952609 C1413.1404,279.856957 1415.72307,283.087391 1419.41073,285.048261 C1421.8114,286.322174 1424.5544,286.965652 1427.29307,286.965652 C1428.63207,286.965652 1429.98407,286.804783 1431.2884,286.491739 L1438.80673,307.578696 L1432.89607,309.700435 C1431.96873,310.035217 1431.4834,311.052609 1431.81707,311.987391 C1432.07707,312.717826 1432.76173,313.17 1433.4984,313.17 C1433.6934,313.17 1433.89707,313.139565 1434.09207,313.07 L1441.68407,310.348261 L1441.6884,310.348261 L1449.27607,307.626522 C1450.2034,307.296087 1450.6844,306.274348 1450.35073,305.339565 L1450.35073,305.339565 Z M1401.21073,227.004783 C1400.22707,226.817826 1399.30407,227.448261 1399.1134,228.417826 L1392.57873,261.796087 C1392.02407,264.90913 1390.24307,267.578696 1387.56073,269.335217 C1384.5534,271.291739 1380.77907,271.90913 1377.19973,271.022174 C1373.60307,270.126522 1370.4094,267.683043 1368.6674,264.47 C1367.1594,261.678696 1366.8734,258.583043 1367.87873,255.656957 L1370.71707,246.096087 L1392.73907,246.096087 C1393.72273,246.096087 1394.52007,245.296087 1394.52007,244.304783 C1394.52007,243.313478 1393.72273,242.513478 1392.73907,242.513478 L1371.77873,242.513478 L1377.53773,223.083043 C1377.82373,222.13087 1377.28207,221.135217 1376.34607,220.856957 C1375.39707,220.57 1374.40473,221.113478 1374.12307,222.061304 L1364.47707,254.561304 C1363.1684,258.378696 1363.5454,262.500435 1365.5344,266.178696 C1367.47573,269.743913 1370.79507,272.565652 1374.64307,273.974348 L1369.3044,295.713478 L1363.2074,294.200435 C1362.26273,293.961304 1361.28773,294.548261 1361.0494,295.50913 C1360.8154,296.47 1361.40473,297.435217 1362.35373,297.683043 L1370.17973,299.60913 C1370.18407,299.60913 1370.18407,299.617826 1370.18407,299.617826 L1370.1884,299.617826 L1378.0014,301.556957 C1378.14873,301.587391 1378.2874,301.604783 1378.43473,301.604783 C1379.23207,301.604783 1379.96007,301.056957 1380.1594,300.239565 C1380.39773,299.278696 1379.81273,298.30913 1378.8594,298.074348 L1372.77107,296.57 L1378.11407,274.813478 C1378.8854,274.926522 1379.66973,274.991739 1380.44107,274.991739 C1383.6564,274.991739 1386.81973,274.083043 1389.5064,272.33087 C1393.02507,270.035217 1395.36507,266.517826 1396.0844,262.456957 L1402.6234,229.104783 C1402.80973,228.143913 1402.18573,227.200435 1401.21073,227.004783 L1401.21073,227.004783 Z" id="Fill-1"></path>
        </g>
    </g>
</svg>