<?xml version="1.0" encoding="UTF-8"?>
<svg width="81px" height="104px" viewBox="0 0 81 104" version="1.1" xmlns="http://www.w3.org/2000/svg" xmlns:xlink="http://www.w3.org/1999/xlink">
    <!-- Generator: Sketch 43.1 (39012) - http://www.bohemiancoding.com/sketch -->
    <title>Page 1</title>
    <desc>Created with Sketch.</desc>
    <defs></defs>
    <g id="Desktop" stroke="none" stroke-width="1" fill="none" fill-rule="evenodd">
        <g id="menu_tecidos_vestuario" transform="translate(-771.000000, -212.000000)" fill="#525252">
            <g id="Group" transform="translate(442.000000, 212.000000)">
                <g id="Page-1" transform="translate(329.000000, 0.000000)">
                    <path d="M53.4451266,99.3931327 L27.4983424,99.3931327 L5.59740508,97.4985898 L23.8118842,45.0847077 L54.7574403,45.0847077 L75.1064713,97.4985898 L53.4451266,99.3931327 Z M25.5979378,5.08820089 C26.78501,11.8273606 32.7367068,16.9209744 39.880921,16.9209744 C46.8998937,16.9209744 52.7372395,11.9410331 54.0386627,5.44545755 L64.8747803,8.99095923 L54.7574403,40.3483505 L23.9316805,40.3483505 L15.9543376,8.87728666 L25.5979378,5.08820089 Z M49.2794834,4.73635721 C48.2122075,8.99095923 44.4005078,12.0601187 39.880921,12.0601187 C35.355889,12.0601187 31.424393,8.87728666 30.4769134,4.73635721 L49.2794834,4.73635721 Z M80.5844283,100.816746 C80.9383718,100.215906 81.0581681,99.3931327 80.8240208,98.6786194 L59.0374345,42.7138226 L70.1131447,8.16277334 C70.4670883,6.98815675 69.8735522,5.55371714 68.5612384,5.21269942 L53.3307756,0.119085553 C53.091183,0.119085553 52.8515905,0 52.6119979,0 L25.9518814,0 C25.5979378,0 25.3529,0 25.1187527,0.119085553 L12.2678795,5.21269942 C11.1951583,5.67821567 10.4763807,6.86365822 10.8357695,8.04368779 L19.6407957,42.7138226 L0.124893408,98.786879 C-0.114699143,99.5068053 0.00509713235,100.215906 0.359040674,100.816746 C0.7184295,101.395935 1.43176187,101.872277 2.14509424,101.872277 L27.1389535,103.999578 L27.3785461,103.999578 L53.5649229,103.999578 L53.8045154,103.999578 L78.7983747,101.872277 C79.5117071,101.872277 80.2250394,101.395935 80.5844283,100.816746 L80.5844283,100.816746 Z" id="Fill-1"></path>
                </g>
            </g>
        </g>
    </g>
</svg>