<?xml version="1.0" encoding="UTF-8"?>
<svg width="78px" height="91px" viewBox="0 0 78 91" version="1.1" xmlns="http://www.w3.org/2000/svg" xmlns:xlink="http://www.w3.org/1999/xlink">
    <!-- Generator: Sketch 43.1 (39012) - http://www.bohemiancoding.com/sketch -->
    <title>Fill 1</title>
    <desc>Created with Sketch.</desc>
    <defs></defs>
    <g id="Desktop" stroke="none" stroke-width="1" fill="none" fill-rule="evenodd">
        <g id="menu_tecidos_casa_patchwork" transform="translate(-1034.000000, -218.000000)" fill="#525252">
            <path d="M1106.95349,292.256039 L1074.912,304.463823 C1074.32761,304.754246 1073.89307,304.318612 1073.60337,304.178407 C1073.31867,304.028189 1073.16882,303.592554 1073.31867,302.866496 L1106.95349,226.695528 L1106.95349,291.815397 L1106.95349,292.256039 Z M1039.67385,291.675192 C1038.9546,291.675192 1038.65991,291.239558 1038.65991,290.944127 C1038.52006,290.803923 1038.37022,290.223077 1038.9546,289.642231 L1102.46319,225.974478 L1073.60337,291.675192 L1039.67385,291.675192 Z M1111.15909,223.500874 C1110.8694,221.613124 1109.71061,220.010789 1107.82258,219.134513 C1105.7997,218.268251 1103.47213,218.703886 1101.88379,220.301213 L1035.9028,286.582774 C1034.30946,288.190115 1033.87492,290.508493 1034.74401,292.551469 C1035.61809,294.584431 1037.64597,295.891335 1039.8237,295.891335 L1071.86519,295.891335 L1069.54262,301.123958 C1068.67353,303.156919 1069.10807,305.485311 1070.56155,307.082638 C1071.57549,308.244331 1073.02398,308.830184 1074.47746,308.830184 C1075.1967,308.830184 1075.78109,308.679965 1076.50533,308.39455 L1111.30394,295.16027 L1111.30394,291.524974 L1111.30394,224.367136 L1111.30394,224.226932 C1111.30394,223.931501 1111.15909,223.791297 1111.15909,223.500874 L1111.15909,223.500874 Z" id="Fill-1"></path>
        </g>
    </g>
</svg>