<?xml version="1.0" encoding="UTF-8"?>
<svg width="105px" height="108px" viewBox="0 0 105 108" version="1.1" xmlns="http://www.w3.org/2000/svg" xmlns:xlink="http://www.w3.org/1999/xlink">
    <!-- Generator: Sketch 43.1 (39012) - http://www.bohemiancoding.com/sketch -->
    <title>Group</title>
    <desc>Created with Sketch.</desc>
    <defs></defs>
    <g id="Desktop" stroke="none" stroke-width="1" fill="none" fill-rule="evenodd">
        <g id="menu_tecidos_decoracao" transform="translate(-522.000000, -211.000000)" fill="#525252">
            <g id="Group" transform="translate(522.000000, 211.000000)">
                <path d="M79.2185,64.0598651 L23.1035,63.6774081 C13.8985,63.6774081 6.6435,57.2402108 5.0535,47.6638864 C3.2235,36.6272718 10.2435,25.7496004 20.7085,23.4300239 C22.4785,23.037633 24.0885,22.8439211 25.6285,22.8439211 C26.5535,22.8439211 27.4785,22.9134587 28.4035,23.0724018 L30.3985,23.410156 L31.0535,21.5078053 C34.3935,11.7775047 43.0085,5.48931656 52.9935,5.48931656 C62.9285,5.48931656 71.2935,11.6384294 74.8185,21.5326401 L75.5085,23.4846606 L77.5485,23.0525339 C77.8785,22.9829963 78.2685,22.9531945 78.7985,22.9531945 L80.4735,22.9780293 C85.7485,22.9780293 90.5835,24.9598517 94.0935,28.5509733 C97.8035,32.3556748 99.8685,38.072661 99.7535,44.2267409 C99.5285,54.975271 90.1235,64.0548981 79.2185,64.0598651 M97.5035,25.267804 C93.0935,20.7478584 87.0435,18.2594048 80.4735,18.2594048 L78.7985,18.2345699 L78.6235,18.2345699 C74.0785,7.42146915 64.4085,0.775658946 52.9935,0.775658946 C41.5785,0.775658946 31.6585,7.54564348 27.2385,18.1849002 C24.8035,17.9961552 22.3785,18.219669 19.6735,18.8256397 C6.5735,21.7313191 -1.9065,34.739822 0.3685,48.4337672 C2.3485,60.3743709 11.4835,68.3960327 23.0835,68.3960327 L79.1935,68.7784896 L79.2085,68.7784896 C92.8685,68.7784896 104.2185,57.8114127 104.5035,44.3211134 C104.6435,36.9103893 102.0885,29.9665607 97.5035,25.267804" id="Fill-1"></path>
                <path d="M16.875,82.4287255 C18.01,81.2912886 18.01,79.5379471 16.875,78.3955432 C15.735,77.2680403 13.835,77.2680403 12.82,78.3955432 L4.59,86.5811151 C3.45,87.713585 3.45,89.4718936 4.59,90.6043635 C5.095,91.1109947 5.855,91.4785508 6.615,91.4785508 C7.38,91.4785508 8.135,91.2351691 8.645,90.6043635 L16.875,82.4287255 Z" id="Fill-4"></path>
                <path d="M38.279,81.0414499 C39.419,79.904013 39.419,78.1506714 38.279,77.0132346 C37.134,75.8807647 35.239,75.8807647 34.224,77.0132346 L25.989,85.1938395 C24.849,86.3163755 24.849,88.0846179 25.989,89.2170878 C26.499,89.7237191 27.254,90.0912751 28.019,90.0912751 C28.779,90.0912751 29.539,89.8478934 30.044,89.2170878 L38.279,81.0414499 Z" id="Fill-6"></path>
                <path d="M59.68,79.649704 C60.82,78.5172341 60.82,76.7638925 59.68,75.6264556 C58.535,74.4989527 56.64,74.4989527 55.625,75.6264556 L47.395,83.8070606 C46.885,84.3087249 46.51,85.0587378 46.51,85.8236517 C46.51,86.5835986 46.765,87.3286446 47.395,87.8352759 C47.905,88.3369402 48.66,88.7144301 49.42,88.7144301 C50.185,88.7144301 50.94,88.4611145 51.45,87.8352759 L59.68,79.649704 Z" id="Fill-8"></path>
                <path d="M38.279,92.8673165 L30.044,101.042954 C28.904,102.180391 28.904,103.9387 30.044,105.076137 C30.554,105.577801 31.309,105.955291 32.074,105.955291 C32.829,105.955291 33.589,105.701975 34.099,105.076137 L42.329,96.8955318 C43.474,95.7630619 43.474,94.0047533 42.329,92.8673165 C41.189,91.7348466 39.289,91.7348466 38.279,92.8673165" id="Fill-10"></path>
                <path d="M16.875,94.2545921 L8.645,102.43023 C7.5,103.557733 7.5,105.316042 8.645,106.448511 C9.145,106.955143 9.91,107.332633 10.665,107.332633 C11.425,107.332633 12.19,107.089251 12.695,106.448511 L20.925,98.2828074 C21.435,97.7761761 21.815,97.0211962 21.815,96.2711832 C21.815,95.5112363 21.555,94.7512894 20.925,94.2545921 C19.785,93.1171552 17.885,93.1171552 16.875,94.2545921" id="Fill-12"></path>
                <path d="M77.4145,73.8676504 L69.1845,82.0482554 C68.0395,83.1856922 68.0395,84.9390338 69.1845,86.0764707 C69.6845,86.5831019 70.4445,86.9556249 71.2045,86.9556249 C71.9695,86.9556249 72.7245,86.6973423 73.2295,86.0764707 L81.4645,77.8958657 C81.9695,77.3942014 82.3495,76.6392215 82.3495,75.8792746 C82.3495,75.1292616 82.0995,74.3792487 81.4645,73.8676504 C80.4495,72.7351805 78.5495,72.7351805 77.4145,73.8676504" id="Fill-15"></path>
                <path d="M60.061,91.1114914 L51.831,99.2821624 C51.321,99.7838267 50.941,100.538807 50.941,101.298754 C50.941,102.053733 51.196,102.808713 51.831,103.305411 C52.336,103.817009 53.096,104.189532 53.851,104.189532 C54.616,104.189532 55.376,103.936216 55.881,103.305411 L64.116,95.1347398 C65.251,94.0022699 65.251,92.2290604 64.116,91.1114914 C63.101,89.9790215 61.201,89.9790215 60.061,91.1114914" id="Fill-17"></path>
            </g>
        </g>
    </g>
</svg>