<?xml version="1.0" encoding="UTF-8"?>
<svg width="87px" height="71px" viewBox="0 0 87 71" version="1.1" xmlns="http://www.w3.org/2000/svg" xmlns:xlink="http://www.w3.org/1999/xlink">
    <!-- Generator: Sketch 43.1 (39012) - http://www.bohemiancoding.com/sketch -->
    <title>Combined Shape</title>
    <desc>Created with Sketch.</desc>
    <defs></defs>
    <g id="Desktop" stroke="none" stroke-width="1" fill="none" fill-rule="evenodd">
        <g id="menu_tecidos_casa_patchwork" transform="translate(-1203.000000, -229.000000)" fill="#525252">
            <path d="M1211.32922,293.897859 C1210.42809,293.893756 1209.57657,293.545042 1208.93586,292.913253 C1208.29515,292.277361 1207.93966,291.432241 1207.93966,290.53789 C1207.93966,289.594309 1208.32822,288.720471 1209.03506,288.072272 C1209.74191,287.428175 1210.00646,286.423056 1209.70471,285.508193 C1209.52696,284.978967 1209.31202,283.629236 1209.27481,283.288727 C1209.1384,282.18925 1207.93966,272.289854 1207.93966,264.384287 C1207.93966,260.909447 1208.17114,256.573077 1208.62997,251.490048 C1208.82012,249.471605 1209.53523,243.760889 1209.70471,243.256278 C1210.00646,242.34962 1209.74191,241.340398 1209.03506,240.692199 C1208.32822,240.044 1207.93966,239.170162 1207.93966,238.230683 C1207.93966,237.33223 1208.29102,236.491212 1208.93172,235.859423 C1209.57243,235.219429 1210.42396,234.870715 1211.32922,234.866612 C1212.34195,234.870715 1213.26374,235.30148 1213.92099,236.068652 C1214.52449,236.790697 1215.53309,237.098386 1216.45489,236.864542 C1216.91785,236.741467 1224.85437,235.580452 1230.19913,234.985585 C1236.74262,234.263541 1242.19898,233.898416 1246.5186,233.898416 C1252.43792,233.898416 1259.57253,234.624563 1264.50805,235.227634 C1267.786,235.633785 1270.15869,235.974294 1271.28303,236.1466 C1273.3085,236.450187 1275.66052,236.835825 1276.18136,237.004028 C1277.16929,237.344538 1278.28123,236.999926 1278.92194,236.183523 C1280.13722,234.628666 1282.60911,234.476872 1283.98974,235.855321 C1284.63045,236.48711 1284.98594,237.33223 1284.98594,238.226581 C1284.98594,239.285033 1284.51057,240.236819 1283.65492,240.897325 C1282.81579,241.529114 1282.48097,242.583464 1282.79926,243.58448 C1282.94807,244.05627 1283.16302,245.180363 1283.17128,245.22549 C1283.63425,248.084951 1283.96494,250.636722 1284.15922,252.27363 C1284.73792,257.012048 1285.03967,261.089958 1285.06447,264.396594 L1285.06447,264.847872 C1285.06447,269.16373 1284.54364,274.058043 1284.10548,277.401602 C1283.8616,279.280559 1282.94394,284.732816 1282.79926,285.175888 C1282.48924,286.156392 1282.82819,287.239459 1283.65078,287.863043 C1284.49817,288.515345 1284.98594,289.491746 1284.98594,290.53789 C1284.98594,291.432241 1284.63045,292.277361 1283.98974,292.913253 C1283.3573,293.545042 1282.50577,293.893756 1281.60051,293.897859 C1280.55058,293.893756 1279.57091,293.413761 1278.92194,292.580948 C1278.28123,291.768648 1277.16102,291.444548 1276.18549,291.75634 C1275.30917,292.027107 1258.96075,294.866055 1247.37839,294.866055 C1240.4918,294.866055 1232.9149,294.139908 1227.76857,293.528631 C1224.92464,293.192224 1216.95505,292.035312 1216.45489,291.904031 C1216.24407,291.846596 1216.03326,291.817878 1215.81418,291.817878 C1215.0784,291.817878 1214.39222,292.137875 1213.92512,292.691716 C1213.26374,293.467094 1212.34195,293.893756 1211.32922,293.897859 L1211.32922,293.897859 Z M1288.02827,284.925634 L1287.9332,284.933839 C1287.9208,285.007685 1287.9084,285.08153 1287.89186,285.155376 C1289.20635,286.661003 1289.9256,288.564575 1289.9256,290.541992 C1289.9256,295.091694 1286.18882,298.796275 1281.60051,298.800377 C1279.62052,298.800377 1277.71906,298.094743 1276.20616,296.80655 C1275.04048,297.036291 1270.79113,297.770643 1265.98788,298.402432 C1259.02276,299.304988 1252.78101,299.768573 1247.43626,299.768573 C1241.69055,299.768573 1234.8701,299.300885 1227.18159,298.390125 C1222.01045,297.774746 1217.67017,297.101932 1216.58303,296.925523 C1215.0908,298.135768 1213.23481,298.800377 1211.32922,298.800377 C1206.73678,298.796275 1203,295.087591 1203,290.53789 C1203,288.765599 1203.5663,287.075358 1204.64518,285.631269 C1204.54183,285.122556 1204.43436,284.396409 1204.43436,284.396409 C1204.42609,284.355383 1203.00827,273.327793 1203,264.384287 C1203.00827,256.142312 1204.35996,245.020364 1204.65344,243.141407 C1203.57044,241.697318 1203,240.007077 1203,238.230683 C1203,233.672777 1206.73678,229.968196 1211.32922,229.968196 C1213.24308,229.968196 1215.09493,230.628703 1216.58303,231.838948 C1217.6991,231.662539 1222.213,230.993828 1227.42961,230.378449 C1235.07678,229.467688 1241.47974,229.004103 1246.46486,229 C1251.39212,229 1257.66694,229.459483 1265.11156,230.366141 C1270.61339,231.034853 1274.73873,231.724077 1274.78006,231.732282 C1275.22649,231.769205 1275.71426,231.847153 1276.21029,231.953819 C1277.72319,230.669728 1279.61638,229.968196 1281.58398,229.968196 C1286.18882,229.968196 1289.9256,233.672777 1289.9256,238.230683 C1289.9256,240.208101 1289.20635,242.111673 1287.88773,243.6173 C1288.05307,244.536266 1288.55324,247.572135 1288.9666,250.944412 C1289.61971,256.134107 1289.96693,260.650988 1290,264.363774 L1290,264.847872 C1290,268.527838 1289.66518,272.966771 1288.99967,278.037493 C1288.79712,279.54312 1288.47057,281.873355 1288.02827,284.412819 L1288.02827,284.925634 Z M1217.09394,275.617003 L1217.05674,275.362646 C1216.9286,274.291887 1216.28376,268.737067 1216.28376,264.384287 C1216.28376,262.394562 1216.42016,259.879713 1216.69298,256.901279 C1216.75499,256.212055 1216.82112,255.580266 1216.87486,255.038733 L1217.09808,253.131058 C1217.20968,252.191579 1216.53591,251.330049 1215.59344,251.211076 C1214.59724,251.092102 1213.77466,251.756712 1213.64238,252.774138 C1213.4481,254.341303 1212.81566,259.818175 1212.81566,264.384287 C1212.81566,268.92168 1213.4481,274.406758 1213.65065,276.064178 C1213.76639,276.933914 1214.48977,277.569805 1215.37023,277.569805 C1215.44463,277.569805 1215.5149,277.565703 1215.59344,277.557498 C1216.53591,277.434422 1217.20968,276.572891 1217.09394,275.617003 Z M1270.28559,287.447867 C1270.62868,287.447867 1270.96764,287.361714 1271.26526,287.189408 C1275.28726,284.912506 1278.29239,281.261258 1279.72675,276.916683 C1279.89623,276.420277 1279.85489,275.886949 1279.61928,275.415159 C1279.37953,274.947471 1278.97443,274.598756 1278.466,274.430552 C1277.42433,274.094145 1276.29999,274.680806 1275.96517,275.685925 C1274.83256,279.11974 1272.464,281.987405 1269.31006,283.772004 C1268.84297,284.034566 1268.50814,284.457126 1268.37173,284.969942 C1268.23119,285.478655 1268.3056,286.003778 1268.56601,286.455056 C1268.91324,287.066332 1269.57048,287.447867 1270.28559,287.447867 Z" id="Combined-Shape"></path>
        </g>
    </g>
</svg>