<?xml version="1.0" encoding="UTF-8"?>
<svg width="74px" height="112px" viewBox="0 0 74 112" version="1.1" xmlns="http://www.w3.org/2000/svg" xmlns:xlink="http://www.w3.org/1999/xlink">
    <!-- Generator: Sketch 43.1 (39012) - http://www.bohemiancoding.com/sketch -->
    <title>Page 1</title>
    <desc>Created with Sketch.</desc>
    <defs></defs>
    <g id="Desktop" stroke="none" stroke-width="1" fill="none" fill-rule="evenodd">
        <g id="menu_tecidos_moveis" transform="translate(-605.000000, -222.000000)" fill="#525252">
            <path d="M666.792393,301.099206 L673.156303,301.099206 L673.156303,328.909559 L671.268412,328.909559 L666.792393,301.099206 Z M610.087008,301.099206 L616.457783,301.099206 L611.9749,328.909559 L610.087008,328.909559 L610.087008,301.099206 Z M617.377701,292.874866 L665.86561,292.874866 L669.222624,296.005333 L641.625088,296.005333 L614.020687,296.005333 L617.377701,292.874866 Z M618.922339,287.780992 L665.096724,287.780992 L665.096724,227.087008 L618.922339,227.087008 L618.922339,287.780992 Z M616.382267,222 C614.968065,222 613.828465,223.1396 613.828465,224.546937 L613.828465,289.222655 L606.091544,296.417236 C605.411904,296.904655 605.006865,297.673542 605,298.497349 L605,298.552269 L605,331.449631 C605,332.856968 606.1396,333.996567 607.546937,333.996567 L614.137393,333.996567 C615.386834,333.996567 616.450918,333.07665 616.650005,331.854669 L621.613442,301.099206 L623.71415,301.099206 L623.810261,310.071838 C623.823991,311.465445 624.956726,312.584449 626.357198,312.584449 L628.656992,312.584449 C629.906433,312.584449 630.977382,311.678262 631.176469,310.428821 L632.645591,301.099206 L641.625088,301.099206 L650.522204,301.099206 L652.073707,310.456281 C652.272794,311.685127 653.336878,312.584449 654.586319,312.584449 L656.899844,312.584449 C658.307181,312.584449 659.44678,311.451715 659.44678,310.044378 L659.44678,301.099206 L661.636734,301.099206 L666.593307,331.854669 C666.792393,333.07665 667.856477,333.996567 669.105918,333.996567 L675.696374,333.996567 C677.103711,333.996567 678.243311,332.856968 678.243311,331.449631 L678.243311,298.552269 L678.243311,298.504214 L678.243311,298.442429 C678.215851,297.639217 677.817678,296.890925 677.165497,296.437831 L670.190597,289.943486 L670.190597,224.546937 C670.190597,223.1396 669.050998,222 667.643661,222 L616.382267,222 Z" id="Page-1"></path>
        </g>
    </g>
</svg>