<?xml version="1.0" encoding="UTF-8"?>
<svg width="100px" height="100px" viewBox="0 0 100 100" version="1.1" xmlns="http://www.w3.org/2000/svg" xmlns:xlink="http://www.w3.org/1999/xlink">
    <!-- Generator: Sketch 43.1 (39012) - http://www.bohemiancoding.com/sketch -->
    <title>Combined Shape</title>
    <desc>Created with Sketch.</desc>
    <defs></defs>
    <g id="Desktop" stroke="none" stroke-width="1" fill="none" fill-rule="evenodd">
        <g id="menu_tecidos_vestuario" transform="translate(-442.000000, -213.000000)" fill="#535353">
            <g id="Group" transform="translate(442.000000, 212.000000)">
                <g id="Page-1" transform="translate(0.000000, 1.000000)">
                    <path d="M97.3771512,55.2803383 C98.8481405,55.2803383 100,56.4272113 100,57.8932143 C100,59.3642037 98.8481405,60.5210495 97.3771512,60.5210495 L83.4202047,60.5210495 L83.4202047,97.375566 C83.4202047,98.8465553 82.2683452,99.9984148 80.7973559,99.9984148 L19.2102725,99.9984148 C17.7342968,99.9984148 16.5824373,98.8465553 16.5824373,97.375566 L16.5824373,60.441267 L2.62050441,60.441267 C1.14951505,60.441267 0.00264199334,59.2894076 0.00264199334,57.8184182 C0.00264199334,56.3524153 1.14951505,55.190583 2.62050441,55.190583 L18.0733723,55.190583 L21.9079174,51.4308339 C28.6595093,44.764011 32.9378444,35.7934691 33.9600574,26.1697082 L33.955071,16.0473068 C33.955071,7.20142505 41.1205344,0.00105679734 49.9215385,0.00105679734 C58.7724067,0.00105679734 65.9677886,7.20142505 65.9677886,16.0473068 L65.9677886,26.2345314 C66.9800287,35.7535778 71.2633502,44.7540382 78.0199285,51.5255756 L81.8544736,55.2803383 L97.3771512,55.2803383 Z M78.3290856,58.9603049 L74.4945404,55.1955694 C67.4437643,48.1497797 62.7415848,38.8401623 61.2057722,28.9371627 L38.9564348,28.9371627 C37.4156358,38.8501351 32.7134562,48.1597525 25.6626801,55.1955694 L21.9876999,58.9503321 L21.9876999,94.7577036 L78.3290856,94.7577036 L78.3290856,58.9603049 Z M60.262843,63.1728195 C61.7338324,63.1728195 62.8856919,64.3196926 62.8856919,65.7906819 L62.8856919,81.5876117 C62.8856919,83.0586011 61.7338324,84.2104605 60.262843,84.2104605 L39.7388017,84.2104605 C38.2678123,84.2104605 37.1159528,83.0586011 37.1159528,81.5876117 L37.1159528,65.7906819 C37.1159528,64.3196926 38.2678123,63.1728195 39.7388017,63.1728195 C41.209791,63.1728195 42.3616505,64.3196926 42.3616505,65.7906819 L42.3616505,78.9647629 L57.6399942,78.9647629 L57.6399942,65.7906819 C57.6399942,64.3196926 58.7918537,63.1728195 60.262843,63.1728195 Z M39.2007686,23.6864787 L60.796887,23.6864787 L60.796887,16.0473068 C60.796887,10.0885533 55.9550881,5.24675444 50.001321,5.24675444 C44.0475539,5.24675444 39.2007686,10.0885533 39.2007686,16.0473068 L39.2007686,23.6864787 Z" id="Combined-Shape"></path>
                </g>
            </g>
        </g>
    </g>
</svg>